0l0 1l0 5l1 6l2 
1 0 0 0 
1 0 0 0 
1 0 0 0 
0 0 0 0 
1 0 0 0 
1 0 0 0 
1 0 0 0 
1 0 0 0 
1 0 0 0 
1 0 0 0 
1 0 0 0 
0 0 0 0 
1 0 0 0 
1 0 0 0 
1 0 0 0 
1 0 0 0 
1 0 0 0 
1 0 0 0 
1 0 0 0 
0 0 0 0 
1 0 0 0 
1 0 0 0 
0 0 0 0 
1 0 0 0 
1 0 0 0 
1 0 0 0 
1 0 0 0 
0 0 0 0 
1 0 0 0 
0 0 0 0 
1 0 0 0 
1 0 0 0 
1 0 0 0 
1 0 0 0 
1 0 0 0 
1 0 0 0 
0 0 0 0 
1 0 0 0 
0 0 0 0 
1 0 0 0 
0 0 0 0 
0 0 0 0 
1 0 0 0 
0 0 0 0 
1 0 0 0 
1 0 0 0 
1 0 0 0 
1 0 0 0 
0 0 0 0 
1 0 0 0 
1 0 0 0 
1 0 0 0 
1 0 0 0 
1 0 0 0 
0 0 0 0 
1 0 0 0 
0 0 0 0 
1 0 0 0 
1 0 0 0 
1 0 0 0 
1 0 0 0 
0 0 0 0 
1 0 0 0 
1 0 0 0 
1 0 0 0 
0 0 0 0 
1 0 0 0 
1 0 0 0 
0 0 0 0 
1 0 0 0 
1 0 0 0 
1 0 0 0 
0 0 0 0 
1 0 0 0 
1 0 0 0 
1 0 0 0 
1 0 0 0 
1 0 0 0 
1 0 0 0 
1 0 0 0 
1 0 0 0 
1 0 0 0 
1 0 0 0 
1 0 0 0 
1 0 0 0 
1 0 0 0 
0 0 0 0 
1 0 0 0 
0 0 0 0 
1 0 0 0 
0 0 0 0 
1 0 0 0 
0 0 0 0 
1 0 0 0 
1 0 0 0 
1 0 0 0 
0 0 0 0 
1 0 0 0 
0 0 0 0 
0 0 0 0 
1 0 0 0 
1 0 0 0 
0 0 0 0 
1 0 0 0 
1 0 0 0 
1 0 0 0 
1 0 0 0 
1 0 0 0 
1 0 0 0 
1 0 0 0 
1 0 0 0 
1 0 0 0 
1 0 0 0 
1 0 0 0 
1 0 0 0 
1 0 0 0 
0 0 0 0 
1 0 0 0 
0 0 0 0 
1 0 0 0 
1 0 0 0 
1 0 0 0 
1 0 0 0 
0 0 0 0 
1 0 0 0 
1 0 0 0 
1 0 0 0 
1 0 0 0 
1 0 0 0 
1 0 0 0 
0 0 0 0 
1 0 0 0 
0 0 0 0 
1 0 0 0 
1 0 0 0 
1 0 0 0 
1 0 0 0 
0 0 0 0 
1 0 0 0 
1 0 0 0 
1 0 0 0 
1 0 0 0 
1 0 0 0 
1 0 0 0 
1 0 0 0 
1 0 0 0 
1 0 0 0 
0 0 0 0 
1 0 0 0 
1 0 0 0 
1 0 0 0 
1 0 0 0 
1 0 0 0 
1 0 0 0 
1 0 0 0 
1 0 0 0 
0 0 0 0 
1 0 0 0 
0 0 0 0 
1 0 0 0 
1 0 0 0 
1 0 0 0 
0 0 0 0 
1 0 0 0 
0 0 0 0 
1 0 0 0 
1 0 0 0 
1 0 0 0 
1 0 0 0 
0 0 0 0 
1 0 0 0 
1 0 0 0 
0 0 0 0 
1 0 0 0 
0 0 0 0 
1 0 0 0 
0 0 0 0 
1 0 0 0 
1 0 0 0 
1 0 0 0 
0 0 0 0 
1 0 0 0 
1 0 0 0 
0 0 0 0 
1 0 0 0 
0 0 0 0 
1 0 0 0 
1 0 0 0 
1 0 0 0 
1 0 0 0 
0 0 0 0 
1 0 0 0 
1 0 0 0 
1 0 0 0 
1 0 0 0 
1 0 0 0 
1 0 0 0 
0 0 0 0 
1 0 0 0 
0 0 0 0 
1 0 0 0 
1 0 0 0 
1 0 0 0 
0 0 0 0 
1 0 0 0 
1 0 0 0 
1 0 0 0 
1 0 0 0 
0 0 0 0 
1 0 0 0 
1 0 0 0 
1 0 0 0 
1 0 0 0 
1 0 0 0 
0 0 0 0 
1 0 0 0 
0 0 0 0 
1 0 0 0 
1 0 0 0 
1 0 0 0 
0 0 0 0 
1 0 0 0 
0 0 0 0 
0 0 0 0 
1 0 0 0 
0 0 0 0 
1 0 0 0 
0 0 0 0 
1 0 0 0 
1 0 0 0 
1 0 0 0 
1 0 0 0 
0 0 0 0 
1 0 0 0 
0 0 0 0 
1 0 0 0 
0 0 0 0 
0 0 0 0 
1 0 0 0 
1 0 0 0 
1 0 0 0 
1 0 0 0 
1 0 0 0 
0 0 0 0 
1 0 0 0 
1 0 0 0 
0 0 0 0 
1 0 0 0 
1 0 0 0 
0 0 0 0 
1 0 0 0 
1 0 0 0 
1 0 0 0 
1 0 0 0 
0 0 0 0 
1 0 0 0 
0 0 0 0 
1 0 0 0 
0 0 0 0 
1 0 0 0 
1 0 0 0 
0 0 0 0 
1 0 0 0 
1 0 0 0 
0 0 0 0 
1 0 0 0 
1 0 0 0 
0 0 0 0 
1 0 0 0 
1 0 0 0 
1 0 0 0 
1 0 0 0 
1 0 0 0 
0 0 0 0 
1 0 0 0 
1 0 0 0 
1 0 0 0 
0 0 0 0 
1 0 0 0 
0 0 0 0 
1 0 0 0 
0 0 0 0 
1 0 0 0 
0 0 0 0 
1 0 0 0 
1 0 0 0 
1 0 0 0 
0 0 0 0 
1 0 0 0 
1 0 0 0 
1 0 0 0 
1 0 0 0 
0 0 0 0 
1 0 0 0 
1 0 0 0 
0 0 0 0 
1 0 0 0 
1 0 0 0 
1 0 0 0 
0 0 0 0 
1 0 0 0 
1 0 0 0 
1 0 0 0 
1 0 0 0 
0 0 0 0 
1 0 0 0 
1 0 0 0 
1 0 0 0 
1 0 0 0 
1 0 0 0 
0 0 0 0 
1 0 0 0 
0 0 0 0 
1 0 0 0 
1 0 0 0 
0 0 0 0 
1 0 0 0 
0 0 0 0 
0 0 0 0 
1 0 0 0 
1 0 0 0 
0 0 0 0 
0 0 0 0 
1 0 0 0 
0 0 0 0 
0 0 1 0 
1 0 0 0 
1 0 0 0 
0 0 0 0 
1 0 0 0 
1 0 0 0 
1 0 0 0 
1 0 0 0 
0 0 0 0 
1 0 0 0 
0 0 0 0 
1 0 0 0 
1 0 0 0 
1 0 0 0 
1 0 0 0 
1 0 0 0 
0 0 0 0 
1 0 0 0 
1 0 0 0 
1 0 0 0 
1 0 0 0 
1 0 0 0 
1 0 0 0 
0 0 0 0 
1 0 0 0 
1 0 0 0 
1 0 0 0 
0 0 0 0 
1 0 0 0 
1 0 0 0 
1 0 0 0 
1 0 0 0 
1 0 0 0 
0 0 0 0 
1 0 0 0 
0 0 0 0 
1 0 0 0 
1 0 0 0 
1 0 0 0 
1 0 0 0 
1 0 0 0 
1 0 0 0 
1 0 0 0 
1 0 0 0 
1 0 0 0 
0 0 0 0 
1 0 0 0 
0 0 0 0 
1 0 0 0 
1 0 0 0 
1 0 0 0 
0 0 0 0 
1 0 0 0 
1 0 0 0 
1 0 0 0 
0 0 0 0 
1 0 0 0 
1 0 0 0 
1 0 0 0 
0 0 0 0 
1 0 0 0 
1 0 0 0 
0 0 0 0 
1 0 0 0 
0 0 0 0 
1 0 0 0 
1 0 0 0 
1 0 0 0 
1 0 0 0 
1 0 0 0 
0 0 0 0 
1 0 0 0 
1 0 0 0 
1 0 0 0 
0 0 0 0 
1 0 0 0 
1 0 0 0 
0 0 0 0 
1 0 0 0 
1 0 0 0 
1 0 0 0 
1 0 0 0 
1 0 0 0 
1 0 0 0 
0 0 0 0 
1 0 0 0 
1 0 0 0 
1 0 0 0 
1 0 0 0 
1 0 0 0 
1 0 0 0 
1 0 0 0 
0 0 0 0 
1 0 0 0 
1 0 0 0 
1 0 0 0 
1 0 0 0 
1 0 0 0 
1 0 0 0 
1 0 0 0 
1 0 0 0 
1 0 0 0 
1 0 0 0 
1 0 0 0 
1 0 0 0 
1 0 0 0 
1 0 0 0 
1 0 0 0 
0 0 0 0 
1 0 0 0 
1 0 0 0 
1 0 0 0 
1 0 0 0 
1 0 0 0 
1 0 0 0 
1 0 0 0 
1 0 0 0 
1 0 0 0 
1 0 0 0 
1 0 0 0 
1 0 0 0 
0 0 0 0 
1 0 0 0 
1 0 0 0 
1 0 0 0 
0 0 0 0 
1 0 0 0 
1 0 0 0 
1 0 0 0 
1 0 0 0 
1 0 0 0 
1 0 0 0 
0 0 0 0 
1 0 0 0 
1 0 0 0 
1 0 0 0 
1 0 0 0 
1 0 0 0 
1 0 0 0 
0 0 0 0 
1 0 0 0 
1 0 0 0 
1 0 0 0 
1 0 0 0 
1 0 0 0 
0 0 0 0 
1 0 0 0 
1 0 0 0 
1 0 0 0 
1 0 0 0 
1 0 0 0 
1 0 0 0 
1 0 0 0 
1 0 0 0 
0 0 0 0 
1 0 0 0 
1 0 0 0 
0 0 0 0 
1 0 0 0 
1 0 0 0 
1 0 0 0 
0 0 0 0 
1 0 0 0 
1 0 0 0 
1 0 0 0 
1 0 0 0 
0 0 0 0 
1 0 0 0 
1 0 0 0 
0 0 0 0 
1 0 0 0 
0 0 0 0 
1 0 0 0 
1 0 0 0 
0 0 0 0 
1 0 0 0 
0 0 0 0 
1 0 0 0 
1 0 0 0 
1 0 0 0 
1 0 0 0 
1 0 0 0 
1 0 0 0 
0 0 0 0 
1 0 0 0 
1 0 0 0 
1 0 0 0 
1 0 0 0 
0 0 0 0 
1 0 0 0 
1 0 0 0 
1 0 0 0 
1 0 0 0 
1 0 0 0 
0 0 0 0 
1 0 0 0 
1 0 0 0 
0 0 0 0 
1 0 0 0 
1 0 0 0 
1 0 0 0 
1 0 0 0 
0 0 0 0 
1 0 0 0 
0 0 0 0 
1 0 0 0 
1 0 0 0 
1 0 0 0 
0 0 0 0 
1 0 0 0 
1 0 0 0 
1 0 0 0 
0 0 0 0 
1 0 0 0 
0 0 0 0 
1 0 0 0 
0 0 0 0 
1 0 0 0 
1 0 0 0 
1 0 0 0 
1 0 0 0 
1 0 0 0 
1 0 0 0 
1 0 0 0 
1 0 0 0 
0 0 0 0 
1 0 0 0 
1 0 0 0 
1 0 0 0 
1 0 0 0 
0 0 0 0 
1 0 0 0 
1 0 0 0 
1 0 0 0 
1 0 0 0 
0 0 0 0 
1 0 0 0 
1 0 0 0 
1 0 0 0 
1 0 0 0 
1 0 0 0 
1 0 0 0 
1 0 0 0 
1 0 0 0 
1 0 0 0 
1 0 0 0 
1 0 0 0 
1 0 0 0 
1 0 0 0 
1 0 0 0 
1 0 0 0 
1 0 0 0 
1 0 0 0 
0 0 0 0 
1 0 0 0 
1 0 0 0 
1 0 0 0 
1 0 0 0 
1 0 0 0 
1 0 0 0 
1 0 0 0 
1 0 0 0 
1 0 0 0 
0 0 0 0 
1 0 0 0 
0 0 0 0 
1 0 0 0 
1 0 0 0 
1 0 0 0 
1 0 0 0 
0 0 0 0 
1 0 0 0 
1 0 0 0 
1 0 0 0 
0 0 0 0 
1 0 0 0 
1 0 0 0 
1 0 0 0 
1 0 0 0 
0 0 0 0 
1 0 0 0 
1 0 0 0 
1 0 0 0 
1 0 0 0 
1 0 0 0 
0 0 0 0 
1 0 0 0 
1 0 0 0 
1 0 0 0 
1 0 0 0 
1 0 0 0 
1 0 0 0 
1 0 0 0 
1 0 0 0 
0 0 0 0 
1 0 0 0 
1 0 0 0 
1 0 0 0 
1 0 0 0 
0 0 0 0 
1 0 0 0 
1 0 0 0 
1 0 0 0 
0 0 0 0 
1 0 0 0 
0 0 0 0 
1 0 0 0 
1 0 0 0 
1 0 0 0 
1 0 0 0 
0 0 0 0 
1 0 0 0 
1 0 0 0 
1 0 0 0 
1 0 0 0 
0 0 0 0 
1 0 0 0 
1 0 0 0 
1 0 0 0 
1 0 0 0 
1 0 0 0 
1 0 0 0 
0 0 0 0 
1 0 0 0 
1 0 0 0 
1 0 0 0 
1 0 0 0 
1 0 0 0 
0 0 0 0 
1 0 0 0 
1 0 0 0 
1 0 0 0 
1 0 0 0 
1 0 0 0 
1 0 0 0 
0 0 0 0 
1 0 0 0 
1 0 0 0 
0 0 0 0 
1 0 0 0 
1 0 0 0 
0 0 0 0 
1 0 0 0 
0 0 0 0 
1 0 0 0 
0 0 0 0 
1 0 0 0 
1 0 0 0 
0 0 0 0 
1 0 0 0 
1 0 0 0 
0 0 0 0 
1 0 0 0 
1 0 0 0 
1 0 0 0 
1 0 0 0 
0 0 0 0 
1 0 0 0 
1 0 0 0 
1 0 0 0 
0 0 0 0 
1 0 0 0 
1 0 0 0 
1 0 0 0 
1 0 0 0 
1 0 0 0 
1 0 0 0 
1 0 0 0 
0 0 0 0 
1 0 0 0 
1 0 0 0 
1 0 0 0 
1 0 0 0 
1 0 0 0 
0 0 0 0 
1 0 0 0 
1 0 0 0 
0 0 0 0 
1 0 0 0 
1 0 0 0 
0 0 0 0 
1 0 0 0 
0 0 0 0 
1 0 0 0 
0 0 0 0 
1 0 0 0 
1 0 0 0 
1 0 0 0 
1 0 0 0 
1 0 0 0 
1 0 0 0 
0 0 0 0 
1 0 0 0 
0 0 0 0 
1 0 0 0 
1 0 0 0 
1 0 0 0 
1 0 0 0 
1 0 0 0 
1 0 0 0 
1 0 0 0 
1 0 0 0 
1 0 0 0 
1 0 0 0 
1 0 0 0 
1 0 0 0 
1 0 0 0 
1 0 0 0 
0 0 0 0 
1 0 0 0 
1 0 0 0 
1 0 0 0 
1 0 0 0 
1 0 0 0 
1 0 0 0 
0 0 0 0 
1 0 0 0 
1 0 0 0 
1 0 0 0 
1 0 0 0 
0 0 0 0 
1 0 0 0 
1 0 0 0 
1 0 0 0 
0 0 0 0 
1 0 0 0 
1 0 0 0 
1 0 0 0 
1 0 0 0 
0 0 0 0 
1 0 0 0 
1 0 0 0 
1 0 0 0 
0 0 0 0 
1 0 0 0 
1 0 0 0 
1 0 0 0 
1 0 0 0 
1 0 0 0 
1 0 0 0 
0 0 0 0 
1 0 0 0 
0 0 0 0 
1 0 0 0 
1 0 0 0 
1 0 0 0 
1 0 0 0 
0 0 0 0 
1 0 0 0 
1 0 0 0 
1 0 0 0 
1 0 0 0 
1 0 0 0 
1 0 0 0 
1 0 0 0 
1 0 0 0 
0 0 0 0 
1 0 0 0 
1 0 0 0 
1 0 0 0 
1 0 0 0 
0 0 0 0 
1 0 0 0 
1 0 0 0 
1 0 0 0 
1 0 0 0 
1 0 0 0 
1 0 0 0 
0 0 0 0 
1 0 0 0 
1 0 0 0 
1 0 0 0 
1 0 0 0 
0 0 0 0 
1 0 0 0 
0 0 0 0 
1 0 0 0 
1 0 0 0 
1 0 0 0 
1 0 0 0 
1 0 0 0 
0 0 0 0 
1 0 0 0 
1 0 0 0 
1 0 0 0 
1 0 0 0 
1 0 0 0 
1 0 0 0 
1 0 0 0 
1 0 0 0 
1 0 0 0 
1 0 0 0 
0 0 0 0 
1 0 0 0 
1 0 0 0 
1 0 0 0 
0 0 0 0 
1 0 0 0 
0 0 0 0 
1 0 0 0 
1 0 0 0 
1 0 0 0 
1 0 0 0 
1 0 0 0 
1 0 0 0 
1 0 0 0 
1 0 0 0 
1 0 0 0 
1 0 0 0 
1 0 0 0 
1 0 0 0 
1 0 0 0 
0 0 0 0 
1 0 0 0 
1 0 0 0 
1 0 0 0 
1 0 0 0 
1 0 0 0 
0 0 0 0 
1 0 0 0 
1 0 0 0 
1 0 0 0 
0 0 0 0 
1 0 0 0 
0 0 0 0 
1 0 0 0 
1 0 0 0 
0 0 0 0 
1 0 0 0 
1 0 0 0 
1 0 0 0 
0 0 0 0 
1 0 0 0 
0 0 0 0 
1 0 0 0 
1 0 0 0 
1 0 0 0 
1 0 0 0 
1 0 0 0 
1 0 0 0 
0 0 0 0 
1 0 0 0 
1 0 0 0 
1 0 0 0 
1 0 0 0 
0 0 0 0 
1 0 0 0 
1 0 0 0 
1 0 0 0 
1 0 0 0 
0 0 0 0 
1 0 0 0 
1 0 0 0 
1 0 0 0 
1 0 0 0 
1 0 0 0 
0 0 0 0 
1 0 0 0 
0 0 0 0 
1 0 0 0 
1 0 0 0 
0 0 0 0 
1 0 0 0 
1 0 0 0 
1 0 0 0 
1 0 0 0 
0 0 0 0 
1 0 0 0 
1 0 0 0 
1 0 0 0 
0 0 0 0 
1 0 0 0 
1 0 0 0 
0 0 0 0 
1 0 0 0 
1 0 0 0 
1 0 0 0 
1 0 0 0 
0 0 0 0 
1 0 0 0 
1 0 0 0 
1 0 0 0 
0 0 0 0 
1 0 0 0 
0 0 0 0 
1 0 0 0 
1 0 0 0 
1 0 0 0 
0 0 0 0 
1 0 0 0 
1 0 0 0 
0 0 0 0 
1 0 0 0 
0 0 0 0 
1 0 0 0 
0 0 0 0 
1 0 0 0 
1 0 0 0 
0 0 0 0 
1 0 0 0 
1 0 0 0 
1 0 0 0 
1 0 0 0 
1 0 0 0 
1 0 0 0 
1 0 0 0 
0 0 0 0 
1 0 0 0 
1 0 0 0 
1 0 0 0 
1 0 0 0 
1 0 0 0 
1 0 0 0 
1 0 0 0 
1 0 0 0 
1 0 0 0 
1 0 0 0 
1 0 0 0 
1 0 0 0 
0 0 0 0 
1 0 0 0 
0 0 0 0 
1 0 0 0 
1 0 0 0 
0 0 0 0 
1 0 0 0 
1 0 0 0 
0 0 0 0 
1 0 0 0 
1 0 0 0 
1 0 0 0 
1 0 0 0 
0 0 0 0 
1 0 0 0 
1 0 0 0 
1 0 0 0 
1 0 0 0 
1 0 0 0 
1 0 0 0 
0 0 0 0 
1 0 0 0 
0 0 0 0 
1 0 0 0 
1 0 0 0 
0 0 0 0 
1 0 0 0 
1 0 0 0 
1 0 0 0 
1 0 0 0 
1 0 0 0 
0 0 0 0 
1 0 0 0 
1 0 0 0 
0 0 0 0 
1 0 0 0 
1 0 0 0 
1 0 0 0 
1 0 0 0 
1 0 0 0 
0 0 0 0 
1 0 0 0 
1 0 0 0 
1 0 0 0 
1 0 0 0 
