2,2,1
Connections s,l,d,l,w,t
0,0,2,1,0.74328,-50
0,0,4,1,0.915586,50
1,0,2,1,0.965358,-50
1,0,4,1,0.804015,50
2,1,2,1,0.417479,50
2,1,4,1,0.857436,-50
4,1,4,1,0.534321,-50
4,1,6,2,0.10491,-50
2,1,6,2,0.442198,-50
