2,4,1
Connections s,l,d,l,w,t
0,0,2,1,0.574793,-50
1,0,2,1,0.30073,-50
2,1,3,1,0.757603,50
2,1,6,2,0.638462,-50
3,1,2,1,0.673784,-50
3,1,3,1,0.917449,50
3,1,6,2,0.305264,50
1,0,7,1,0.915403,-50
7,1,2,1,0.751025,-50
7,1,3,1,0.974144,50
3,1,7,1,0.47146,-50
7,1,7,1,-0.0679248,-50
2,1,7,1,0.749857,50
0,0,8,1,0.331068,-50
1,0,8,1,0.19936,50
2,1,8,1,0.535392,-50
3,1,8,1,0.675843,50
8,1,6,2,0.808302,-50
7,1,8,1,0.605342,50
