2,5,1
Connections s,l,d,l,w,t
0,0,2,1,0.182369,-50
0,0,3,1,1.00272,50
0,0,4,1,0.84552,-50
1,0,2,1,0.658813,50
1,0,3,1,0.329811,-50
2,1,2,1,0.353687,-50
2,1,3,1,0.169071,-50
2,1,4,1,0.615498,-50
2,1,6,2,0.0283477,-50
3,1,2,1,0.0193434,50
3,1,3,1,0.322227,-50
3,1,4,1,0.820391,-50
3,1,6,2,0.750013,-50
4,1,2,1,0.28237,50
4,1,4,1,0.718442,-50
0,0,7,1,0.503649,-50
1,0,7,1,0.0716393,50
7,1,2,1,0.891563,-50
2,1,7,1,0.133195,-50
3,1,7,1,0.370293,50
7,1,4,1,0.983885,50
4,1,7,1,0.306153,50
7,1,6,2,0.390646,50
7,1,3,1,-0.0835997,-50
0,0,8,1,0.719942,-50
1,0,8,1,0.284891,-50
8,1,2,1,0.703786,50
2,1,8,1,0.369161,50
8,1,3,1,0.35454,-50
3,1,8,1,0.806173,50
8,1,4,1,0.475328,-50
4,1,8,1,0.0547144,-50
8,1,7,1,0.378053,50
7,1,8,1,0.131513,50
8,1,8,1,0.0432863,50
8,1,6,2,0.278373,50
