2,3,1
Connections s,l,d,l,w,t
0,0,2,1,0.837557,-50
0,0,3,1,0.196395,50
1,0,2,1,0.41168,50
1,0,3,1,0.187079,-50
2,1,2,1,0.6452,50
2,1,3,1,0.195491,50
2,1,6,2,0.3828,50
3,1,2,1,0.107617,50
3,1,3,1,0.678383,50
3,1,6,2,0.075575,50
0,0,7,1,0.855829,-50
1,0,7,1,0.754314,-50
7,1,2,1,0.936192,-50
7,1,3,1,0.0904742,-50
3,1,7,1,0.81171,-50
7,1,6,2,0.601432,-50
7,1,7,1,0.71305,50
2,1,7,1,0.559828,-50
