2,3,1
Connections s,l,d,l,w,t
0,0,4,1,0.0335549,50
0,0,5,1,0.0874995,50
1,0,2,1,0.415254,50
1,0,4,1,0.640097,50
1,0,5,1,0.188937,50
2,1,2,1,0.381181,50
2,1,5,1,0.6162,-50
2,1,6,2,0.588345,50
4,1,2,1,0.0150606,50
4,1,4,1,0.790937,50
4,1,5,1,0.131109,50
4,1,6,2,0.242899,50
5,1,2,1,0.113543,-50
5,1,6,2,1.07918,-50
0,0,2,1,0.123493,50
5,1,4,1,0.96602,-50
