0l0 1l0 4l1 5l1 6l2 7l1 8l1 9l1 
-55.25 -55.25 -55.25 -55.25 -55.25 -55.25 -55.25 -55.25 
-55.6475 -55.6475 -55.6475 -55.6475 -55.6475 -55.6475 -55.6475 -55.6475 
-56.263 -56.263 -56.263 -56.263 -56.263 -56.263 -56.263 -56.263 
-57.1852 -57.1852 -57.1852 -57.1852 -57.1852 -57.1852 -57.1852 -57.1852 
-58.504 -58.504 -58.504 -58.504 -58.504 -58.504 -58.504 -58.504 
-60.2646 -60.2646 -60.2646 -60.2646 -60.2646 -60.2646 -60.2646 -60.2646 
-62.3865 -62.3865 -62.3865 -62.3865 -62.3865 -62.3865 -62.3865 -62.3865 
-64.5939 -64.5939 -64.5939 -64.5939 -64.5939 -64.5939 -64.5939 -64.5939 
-66.4711 -66.4711 -66.4711 -66.4711 -66.4711 -66.4711 -66.4711 -66.4711 
-67.6977 -67.6977 -67.6977 -67.6977 -67.6977 -67.6977 -67.6977 -67.6977 
-68.2519 -68.2519 -68.2519 -68.2519 -68.2519 -68.2519 -68.2519 -68.2519 
-68.3325 -68.3325 -68.3325 -68.3325 -68.3325 -68.3325 -68.3325 -68.3325 
-68.154 -68.154 -68.154 -68.154 -68.154 -68.154 -68.154 -68.154 
-67.856 -67.856 -67.856 -67.856 -67.856 -67.856 -67.856 -67.856 
-67.5124 -67.5124 -67.5124 -67.5124 -67.5124 -67.5124 -67.5124 -67.5124 
-67.1594 -67.1594 -67.1594 -67.1594 -67.1594 -67.1594 -67.1594 -67.1594 
-66.815 -66.815 -66.815 -66.815 -66.815 -66.815 -66.815 -66.815 
-66.4879 -66.4879 -66.4879 -66.4879 -66.4879 -66.4879 -66.4879 -66.4879 
-66.1822 -66.1822 -66.1822 -66.1822 -66.1822 -66.1822 -66.1822 -66.1822 
-65.9001 -65.9001 -65.9001 -65.9001 -65.9001 -65.9001 -65.9001 -65.9001 
-65.6423 -65.6423 -65.6423 -65.6423 -65.6423 -65.6423 -65.6423 -65.6423 
-65.4091 -65.4091 -65.4091 -65.4091 -65.4091 -65.4091 -65.4091 -65.4091 
-65.2 -65.2 -65.2 -65.2 -65.2 -65.2 -65.2 -65.2 
-65.0147 -65.0147 -65.0147 -65.0147 -65.0147 -65.0147 -65.0147 -65.0147 
-64.8524 -64.8524 -64.8524 -64.8524 -64.8524 -64.8524 -64.8524 -64.8524 
-64.7123 -64.7123 -64.7123 -64.7123 -64.7123 -64.7123 -64.7123 -64.7123 
-64.5933 -64.5933 -64.5933 -64.5933 -64.5933 -64.5933 -64.5933 -64.5933 
-64.4943 -64.4943 -64.4943 -64.4943 -64.4943 -64.4943 -64.4943 -64.4943 
-64.4141 -64.4141 -64.4141 -64.4141 -64.4141 -64.4141 -64.4141 -64.4141 
-64.3511 -64.3511 -64.3511 -64.3511 -64.3511 -64.3511 -64.3511 -64.3511 
-64.304 -64.304 -64.304 -64.304 -64.304 -64.304 -64.304 -64.304 
-64.2709 -64.2709 -64.2709 -64.2709 -64.2709 -64.2709 -64.2709 -64.2709 
-64.2503 -64.2503 -64.2503 -64.2503 -64.2503 -64.2503 -64.2503 -64.2503 
-64.2403 -64.2403 -64.2403 -64.2403 -64.2403 -64.2403 -64.2403 -64.2403 
-55 -64.2392 -64.2392 -64.2392 -64.2392 -64.2392 -64.2392 -64.2392 
-67.233 -64.2452 -64.2452 -109.377 -64.2452 -33.5676 -15.418 -74.1405 
-55 -64.2567 -64.2567 -21.6125 -64.2567 -0.217725 -55 -68.8538 
-55 -64.2722 -100.845 1.11663 -45.3625 -55 -1.12975 -54.027 
-90.8231 -64.2901 -53.8455 -55 -33.7584 -78.6782 -55 -38.7882 
-55 -64.3094 -134.136 -100.096 -7.23092 -23.4845 -13.6469 28.6542 
-55 -64.3288 -55 -94.1839 -55 -55 -55 -55 
-55 -64.3477 -130.188 -28.0294 7.13831 -53.4018 -55.776 -40.9802 
-116.868 -64.3653 -55 -28.5638 -55 -28.3243 -17.7571 -38.9121 
-55 -64.3812 -96.1696 -55 -53.0245 0.764045 20.2551 -11.9459 
-55 -64.395 -102.276 -147.517 -84.7614 -55 -55 -55 
-55 -64.4067 -78.0381 -55 -19.311 -47.658 -28.1348 -56.3666 
-55 -64.4162 -117.445 -148.137 22.1961 -7.31958 -55 -53.0181 
-55 -64.4236 -34.358 -55 -55 -55 -14.3456 -45.8169 
-145.84 -64.4291 -61.5086 -114.113 -91.4854 -74.9215 -55 -9.30584 
-55 -64.4327 -98.5189 -16.1079 -51.7568 -45.3059 -65.1349 -55 
-55 -64.4348 -35.1504 18.3814 -21.4984 -15.4627 -34.7636 -103.242 
-148.127 -64.4356 -4.85698 -55 -55 -55 27.9788 -58.682 
-55 -64.4354 -55 -72.1818 -91.7262 -105.877 -55 -23.7689 
-55 -64.4343 -134.48 -84.3067 -40.5136 13.9366 -46.9082 -55 
-149.795 -64.4327 -55 -120.526 4.27529 -55 -7.19996 -103.356 
-55 -64.4306 -110.95 -55 -55 -129.115 -55 -15.3482 
-55 -64.4283 -107.879 -149.766 -73.867 -55 24.2284 -55 
-151.011 -64.426 -30.1342 -55 -46.1599 -88.5331 -55 -82.3167 
-55 -64.4236 -75.6641 -104.77 -53.7082 -25.5693 -27.0427 -34.527 
-146.941 -64.4213 -72.6445 -88.1322 -62.1868 -55 -55 -24.3632 
-55 -64.4193 -120.026 -35.0785 -53.9689 -81.669 -84.6398 -55 
-55 -64.4174 21.5951 -56.518 -24.2662 -51.4239 -38.2867 -105.058 
-55 -64.4158 -55 -106.713 25.2043 -29.0399 14.6102 -56.0826 
-153.687 -64.4145 -99.1785 -39.0216 -55 24.8801 -55 -64.3314 
-55 -64.4134 -88.6187 -21.3809 -48.3041 -55 -66.888 -51.5164 
-136.517 -64.4126 -78.1592 31.0118 -53.5104 -89.1978 -53.388 -43.8206 
-55 -64.412 -72.402 -55 -62.636 -76.1959 -68.3 -38.5735 
-135.201 -64.4116 -119.278 -150.522 -98.8499 -38.3885 6.28618 -11.8847 
-55 -64.4114 6.87048 -55 -56.3249 -26.8719 -55 -55 
-134.136 -64.4113 -55 -150.496 -32.6557 -55 26.1083 -57.8999 
-2.36619 -64.4114 -110.548 -55 6.2909 -127.301 -55 -35.4499 
-55 -64.4115 -108.665 -105.344 -55 -55 -25.567 28.1803 
-116.293 -64.4117 -39.7168 -52.7594 -65.5947 -87.1092 -55 -55 
-57.9844 -64.412 -46.6114 -57.1514 -21.6241 -38.728 -67.6955 -73.0106 
-107.581 -64.4123 -39.9133 -63.6816 34.595 -27.8373 -87.6541 -82.9297 
-55 -64.4125 -23.0266 -70.7291 -55 9.02397 -81.212 -78.9387 
-108.117 -64.4128 -55 -119.578 -68.8135 -55 -34.7932 -89.01 
-74.961 -64.4131 -112.169 -55 -70.7861 -128 -64.7189 -37.1529 
-112.744 -64.4133 -68.8367 -101.98 -105.986 -55 -37.0943 2.6153 
-55 -64.4135 -84.8031 -12.3128 -42.027 -118.335 -39.3863 -55 
-55 -64.4137 -58.1314 -55 1.73733 22.9218 19.0213 -103.035 
-111.933 -64.4139 -109.048 -149.71 -55 -55 -55 -36.9083 
-67.7036 -64.414 -74.574 -55 -47.7121 -81.5724 -76.6095 24.727 
-113.61 -64.4141 -118.678 -104.726 -76.5046 -69.0859 -42.3865 -55 
-51.3434 -64.4141 17.5816 -43.0659 -44.0647 -80.4758 -39.2825 -95.031 
-83.1501 -64.4142 -55 -35.6612 -40.8866 -79.2609 -30.056 -66.1579 
-99.5414 -64.4142 -98.4866 26.3596 -20.9591 -87.4968 -30.1757 -65.7678 
-74.3086 -64.4142 -52.7424 -55 -55 -71.2838 0.174579 -75.5366 
-55 -64.4142 -101.029 -107.272 -91.2162 -62.5579 -55 -55.8423 
-90.3641 -64.4142 -82.682 -84.1755 -51.8666 -0.543277 -11.4528 -48.9438 
-93.4105 -64.4142 -69.5021 -75.0835 -57.9789 -55 -55 -49.0021 
-85.2506 -64.4141 -118.144 -42.4907 -48.1516 -76.0251 -78.6498 -3.71685 
-90.8893 -64.4141 3.69387 -33.6501 -49.0019 -78.759 -84.9071 -55 
-81.853 -64.4141 -55 -7.37696 -13.8239 -76.9551 -79.5037 -91.9744 
-55 -64.414 -98.1846 -55 -55 -85.4671 -111.132 -56.7155 
-85.3359 -64.414 -100.515 -151.232 -90.159 -27.2057 -55 -52.1807 
-94.0541 -64.414 -83.6594 -55 -52.242 -55 -57.4161 -33.1949 
-80.3389 -64.414 -127.953 -71.4108 -82.6432 -99.6869 -42.8415 -55 
-90.3836 -64.4139 -55 -78.9724 -39.0687 -53.3933 -38.1811 -92.1403 
-79.3967 -64.4139 -96.5123 -36.9337 -13.7558 -66.6486 -55.276 -56.6385 
-85.4438 -64.4139 -54.5192 -18.9921 -55 -72.777 -63.1037 -64.356 
-79.7475 -64.4139 -55.0359 -55 -64.9229 -74.6463 -72.256 -72.6098 
-81.1617 -64.4139 -103.308 -106.695 -100.699 -61.0553 -35.6329 -54.0368 
-78.8446 -64.4139 -39.6633 -40.0003 -52.4196 -65.4918 -14.0455 -57.7932 
-78.2066 -64.4139 -20.5154 -28.9994 -56.5408 -69.3003 -55 -63.1404 
-77.0357 -64.4139 11.245 6.94369 -43.8924 -33.4023 -56.434 -45.9155 
-76.0814 -64.4139 -55 -55 -37.1678 -2.79147 -65.8651 -40.1713 
-75.1497 -64.4139 -148.183 -67.4366 -32.1045 -55 -64.8046 7.83155 
-74.2739 -64.4139 -55 -44.6724 -2.09095 -111.825 -89.3805 -55 
-73.4475 -64.4139 -89.2107 -2.6589 -55 -32.0915 -99.0644 -79.739 
-72.6685 -64.4139 -69.1726 -55 -64.6859 -1.37074 -52.2732 -77.6406 
-71.9348 -64.4139 -121.917 -109.509 -100.292 -55 -12.1428 -54.8593 
-55 -64.4139 1.39256 -0.571347 -53.0629 -114.328 -55 -37.7371 
-69.7083 -64.4139 -55 -55 -38.6195 -55 -5.56292 -6.91223 
-83.1423 -64.4139 -160.616 -34.991 -36.9975 -111.493 -55 -55 
-79.9416 -64.4139 -55 -19.301 -55 11.0483 -58.2404 -68.9363 
-79.7788 -64.4139 -101.507 -55 -52.9981 -55 -100.523 -66.7346 
-55 -64.4139 -108.571 -77.3851 -84.6912 -103.916 -28.8112 -31.4013 
-76.5133 -64.4139 -30.6546 -129.769 -74.7427 -17.4549 -55 -11.123 
-90.2954 -64.4139 -31.8601 -55 -58.1199 -55 -57.9732 -55 
-78.5775 -64.4139 -47.0051 -74.9127 -52.8801 -104.644 -44.1141 -49.2317 
-84.8726 -64.4139 -43.213 -82.6391 -55.8397 -47.0817 -41.8275 -54.1374 
-79.4829 -64.4139 -34.0137 -78.6684 -60.3636 -48.716 -35.367 -62.4872 
-80.6178 -64.4139 -7.21176 -78.7981 -66.0785 -51.5929 -16.0686 -72.7911 
-78.53 -64.4139 -55 -77.359 -70.9899 -56.6705 -55 -77.8912 
-55 -64.4139 -139.331 -35.7611 -42.9113 -36.0338 -89.1878 -42.409 
-75.718 -64.4139 -55 -59.1153 -31.7818 14.185 -24.8212 -43.2233 
-89.6505 -64.4139 -103.087 -24.8384 12.7531 -55 -9.56303 -24.0669 
-78.7256 -64.4139 -59.0625 -55 -55 -116.419 -55 -55 
-84.2835 -64.4139 -138.879 -104.97 -32.3717 -55 -18.7247 -46.425 
-79.4394 -64.4139 -55 -8.19314 -5.50598 -116.794 28.1739 -24.2793 
-80.2026 -64.4139 -100.984 -55 -55 -20.9372 -55 -55 
-78.3232 -64.4139 -122.111 -106.793 -36.0276 -55 -22.1675 -49.0496 
-77.5185 -64.4139 1.78403 -5.3296 -20.7293 -117.173 10.05 -32.3659 
-76.4524 -64.4139 -55 -55 -55 -10.6843 -55 -7.80109 
-75.5132 -64.4139 -185.798 -67.464 -63.578 -55 -54.6258 -55 
-74.6159 -64.4139 -55 -44.7136 -41.7587 -117.697 -86.7781 -73.9756 
-73.7701 -64.4139 -101.104 -2.78021 -26.6898 -18.6972 -110.901 -71.8615 
-72.9725 -64.4139 -49.9057 -55 12.0726 -55 -32.1482 -81.0639 
-72.221 -64.4139 -109.381 -75.0116 -55 -104.887 17.717 -34.4231 
-71.5137 -64.4139 -27.8464 -82.7284 -69.69 -46.7212 -55 -12.6279 
-70.8486 -64.4139 -21.0163 -78.6912 -64.2085 -10.3107 -61.3769 -55 
-70.2241 -64.4139 -55 -78.8591 -41.4328 -55 -76.678 -94.2406 
-69.6386 -64.4139 -113.392 -2.20122 -25.0058 -127.201 -128.809 -33.4039 
-69.0904 -64.4139 -18.7602 -55 19.418 26.5342 34.8435 -10.2811 
-68.5783 -64.4139 3.42369 -107.016 -55 -55 -55 -55 
-68.1009 -64.4139 -55 -4.96091 -13.9275 -81.1317 -75.3453 -50.0675 
-67.6571 -64.4139 -104.343 -55 -55 -91.2137 -112.94 -46.2199 
-67.2456 -64.4139 -93.1174 -108.32 -96.483 -58.0338 17.8563 -26.134 
-66.8654 -64.4139 -64.8324 -37.2381 -67.5743 -68.0817 -55 14.9838 
-66.5156 -64.4139 -108.775 -22.2351 -62.4041 -38.9849 -59.3795 -55 
-66.1952 -64.4139 -17.9616 32.4503 -39.1438 -25.7313 -72.544 -96.7732 
-65.9033 -64.4139 -55 -55 -29.2936 19.7176 -80.8478 -64.8126 
-65.6389 -64.4139 -149.241 -69.2119 -10.2716 -55 -67.6643 -44.0582 
-65.4012 -64.4139 -55 -47.2183 -55 -116.912 -91.8121 -19.8462 
-65.1894 -64.4139 -102.031 -9.97011 -57.0314 -20.6487 -96.3425 -55 
-65.0024 -64.4139 -36.7795 -55 -33.4765 -55 -57.4368 -95.239 
-64.8393 -64.4139 -76.8655 -75.8869 -37.5027 -104.284 -36.5165 -21.8883 
-64.699 -64.4139 -75.9734 -83.4847 -24.9202 -47.6068 -14.5893 32.5598 
-64.5803 -64.4139 -75.0418 -78.8878 19.7112 -49.5948 -55 -55 
-64.4819 -64.4139 -98.7546 -79.399 -55 -15.3563 -54.6122 -74.1009 
-64.4026 -64.4139 -50.8078 -77.757 -69.3749 -55 -61.3867 -84.0369 
-64.3408 -64.4139 -60.3324 -42.3782 -82.6967 -116.778 -85.7197 -56.9748 
-64.2948 -64.4139 -63.4893 -33.4625 -79.9622 -11.655 -71.9809 -67.4816 
-64.2631 -64.4139 -66.5773 -6.85289 -79.5462 -55 -74.912 -77.2447 
-64.2438 -64.4139 -80.435 -55 -78.1523 -117.394 -90.235 -56.0982 
-64.2351 -64.4139 -117.577 -106.197 -102 2.84397 -23.234 -40.7558 
-64.2353 -64.4139 1.87164 -40.806 -47.219 -55 34.676 -29.5811 
-64.2425 -64.4139 -55 3.67284 -43.8202 -118.192 -55 28.2632 
-64.255 -64.4139 -134.626 -55 -5.60486 20.342 -85.5559 -55 
-64.2713 -64.4139 32.3023 -107.704 -55 -55 -32.8609 -71.563 
-64.29 -64.4139 -55 -3.79962 -63.4028 -119.192 -21.7069 -58.3933 
-64.3098 -64.4139 -101.49 -55 -62.0677 -14.8461 6.194 -57.3047 
-64.3298 -64.4139 -96.9216 -108.834 -95.7591 -55 -55 -44.0584 
-64.349 -64.4139 -104.743 -1.80786 -40.6804 -81.234 -73.7654 5.52199 
-64.3668 -64.4139 -38.8405 -55 -28.1375 -81.9345 -80.9829 -55 
-64.3827 -64.4139 -55.8755 -109.683 24.3179 -66.706 -37.0501 -71.9002 
-64.3966 -64.4139 -58.3163 -34.7564 -55 -77.1484 -20.5034 -80.8534 
-64.4083 -55 -61.6208 -15.562 -65.044 -78.5577 -55 -78.446 
-64.4177 -67.2569 -67.0267 -55 -57.19 -69.8404 -23.6867 -78.683 
-64.4249 -79.6579 -117.166 -109.576 -91.0494 -62.1869 -55 -54.4251 
-64.4302 -55 -37.2831 -34.957 -48.896 -31.0094 -60.6476 -35.92 
-64.4337 -77.8522 21.5919 4.1753 -49.2653 -28.0578 -40.9709 -38.1594 
-64.4356 -91.2666 -55 -55 -49.6563 13.1237 -35.7654 -21.1782 
-64.4362 -78.4024 -147.492 -69.3078 -63.774 -55 -9.14316 -55 
-64.4358 -85.8431 -55 -47.3486 -33.9504 -114.783 -55 -69.4282 
-64.4346 -79.5126 -137.231 -10.3343 22.6152 12.0974 -91.3382 -43.5701 
-64.4329 -81.3333 -55 -55 -55 -55 -72.9581 -38.3746 
-64.4307 -78.8408 -160.59 -35.2471 -78.2347 -112.919 -86.4732 31.4842 
-64.4283 -78.2773 -55 -20.3484 -79.2191 -23.7768 -74.7503 -55 
-64.4259 -77.08 -89.4969 -55 -29.8778 16.7927 -108.829 -83.247 
-64.4235 -76.1287 -116.582 -112.05 -20.2805 -55 9.74101 -56.9223 
-64.4212 -75.1936 -18.5274 4.41636 -55 -118.066 -55 -44.8049 
-64.4191 -74.3154 16.9902 -55 -46.3628 29.3422 -56.2824 -19.5591 
-64.4172 -73.4866 -55 -112.111 -72.2719 -55 -24.389 -55 
-64.4157 -72.7053 -103.065 -55 -31.6583 -128.649 -22.4639 -60.9872 
-64.4143 -55 -95.1911 -111.768 -27.984 -55 -55 -51.6162 
-64.4133 -70.2121 -74.2462 24.1339 29.1344 -111.752 -40.1511 -37.2509 
-64.4125 -83.7989 -75.593 -55 -55 -29.3023 -33.0244 -22.5219 
-64.4119 -79.8922 -122.165 -112.404 -92.3923 15.8065 30.6535 -55 
-64.4115 -80.1378 27.132 -29.3592 -33.7656 -55 -55 -94.7674 
-64.4113 -78.4324 -55 -55 6.61242 -81.6417 -77.3665 -21.2731 
-64.4113 -77.5648 -148.653 -70.8275 -55 -78.4324 -73.4265 -55 
-64.4113 -55 -55 -83.8267 -32.1172 -81.4581 -82.3232 -95.4878 
-64.4115 -74.3444 -66.6629 -18.6975 1.42773 -118.621 -74.9437 -78.4561 
-64.4117 -88.4178 -74.8021 -55 -55 -2.5991 -79.2017 -79.9918 
-64.412 -79.0314 -124.137 -110.383 -95.7168 -55 -36.0884 -55.9112 
-64.4123 -83.2491 9.28408 1.08582 -68.178 -115.343 -31.8586 -40.9216 
-64.4125 -79.3116 -55 -55 -81.0564 -15.0766 -2.12391 -30.4575 
-64.4128 -79.5053 -149.607 -70.1607 -93.6197 -55 -55 -55 
-64.4131 -77.9293 -55 -48.4755 -10.4877 -78.5089 -73.0361 -47.3045 
-64.4133 -77.0362 -102.319 -13.4459 -55 -89.8646 -110.712 -37.9168 
-64.4136 -76.0274 -48.4032 -55 -66.3814 -70.6318 -28.0079 -24.1436 
-64.4137 -75.1058 -95.5578 -110.886 -103.102 -64.0334 -55 -55 
-64.4139 -74.2321 -83.7028 -32.4442 7.00527 -34.1365 -56.8147 -71.4121 
-64.414 -55 -71.5044 -8.84808 -55 -9.16567 -66.7674 -81.1345 
-64.4141 -71.3385 -38.0919 -55 -66.7907 -55 -42.13 -102.537 
-64.4142 -85.1934 -77.5145 -76.0497 -103.746 -101.871 -9.45385 -4.19733 
-64.4142 -79.717 -72.8612 -83.6187 -47.2497 -50.8551 -55 -55 
-64.4142 -80.966 -96.7642 -78.924 8.02167 -16.6112 -57.9922 -70.0524 
-64.4142 -78.7538 -52.8597 -79.4993 -55 -55 -69.4848 -79.4465 
-64.4142 -78.072 -62.7698 -43.3102 -66.6126 -115.712 -94.5692 -56.2725 
-64.4142 -76.9257 -64.8317 -37.1103 -78.6624 -14.2144 -63.4448 -63.7037 
-64.4142 -55 -66.5283 -19.5442 -79.6269 -55 -71.6815 -71.9482 
-64.4141 -55 -44.3694 -55 -77.8242 -147.27 -57.3448 -77.6569 
-64.4141 -86.0331 -45.31 -86.3927 -101.808 -55 12.4978 -76.838 
-64.4141 -55 -47.0409 -40.477 -47.3974 -116.15 -55 -52.1524 
-64.414 -94.3093 -41.3315 -10.5309 -25.0986 -6.0802 -21.793 -53.4634 
-64.414 -91.4894 -25.8221 -55 25.255 -55 33.952 -54.7926 
-64.414 -55 -33.9277 -73.5701 -55 -104.11 -55 -12.7193 
-64.4139 -96.9648 -6.40639 -61.052 -45.5313 -40.7637 -26.3439 -55 
-64.4139 -89.4952 -55 -72.1668 -8.29766 -32.5889 11.3137 -89.4765 
-64.4139 -95.5854 -101.007 -37.9177 -55 -16.38 -55 -57.6099 
-64.4139 -82.9032 -86.5935 -22.7267 -48.4212 -55 -63.2277 -40.6553 
-64.4139 -93.4801 -81.6372 -55 -53.8654 -117.174 -96.0097 -5.9846 
-64.4139 -79.1475 -119.862 -107.209 -88.1382 2.2985 -25.3401 -55 
-64.4139 -89.0022 19.3073 -39.1498 -36.8407 -55 16.8456 -91.6323 
-64.4139 -79.4001 -55 7.51861 -20.2611 -118.023 -55 -46.0149 
-64.4139 -84.0188 -137.075 -55 -55 19.9117 -92.5844 -9.62305 
-64.4139 -79.5754 30.0324 -108.481 -91.21 -55 -31.2751 -55 
-64.4139 -80.1082 -55 -2.44184 -34.2906 -119.062 -21.7781 -71.1405 
-64.4139 -55 -103.164 -55 -1.95006 -15.1882 0.885657 -68.756 
-64.4139 -76.6754 -59.8613 -89.1201 -55 -55 -55 -79.4629 
-64.4139 -90.4206 -116.112 -40.1484 -48.718 -81.1336 -77.6853 -32.2264 
-64.4139 -78.5509 -8.72679 -32.0572 -54.7601 -81.8938 -84.2834 -3.61122 
-64.4139 -84.9916 -55 -6.31125 -65.0469 -79.6294 -79.2253 -55 
-64.4139 -79.4893 -90.4452 -55 -28.8299 -88.2934 -110.563 -81.9285 
-64.4139 -80.7034 -116.3 -109.65 -18.7904 -58.3079 12.4655 -56.536 
-64.4139 -78.5702 -8.5372 -34.8187 -55 -65.6683 -55 -65.2735 
-64.4139 -77.8568 -55 -15.7363 -48.3164 -34.9052 -58.004 -51.3229 
-64.4139 -55 -102.783 -55 -42.4077 -20.432 -99.9904 -43.5234 
-64.4139 -74.6091 -60.3716 -89.2516 -63.4326 25.8922 20.3197 -38.8231 
-64.4139 -55 -68.1773 -74.6281 -75.0935 -55 -55 -24.0587 
-64.4139 -85.0559 -87.5281 -25.9324 -60.4053 -108.572 -40.6143 -55 
-64.4139 -55 -56.9756 16.9996 -32.9982 -35.3866 -34.7241 -92.1727 
-64.4139 -93.5178 -26.129 -55 -6.62951 -46.1321 17.8187 -91.6822 
-64.4139 -91.9747 -25.6497 -109.748 -55 -31.6884 -55 -44.682 
-64.4139 -89.7584 -13.3353 -34.6355 -46.8606 -55 -61.5161 -16.5225 
-64.4139 -88.6438 -55 19.2879 -49.0453 -115.673 -92.74 -55 
-64.4139 -86.4305 -90.6192 -55 -5.40101 -23.6263 -100.657 -80.9154 
-64.4139 -85.5466 -116.24 -110.491 -55 -55 -13.2262 -56.1447 
-64.4139 -83.5856 -20.5411 1.2944 -67.6911 -116.314 -55 -41.8258 
-64.4139 -55 7.25348 -55 -61.4006 25.0055 -58.7455 -10.3801 
-64.4139 -82.2834 -55 -90.6335 -98.4175 -55 4.18306 -55 
-64.4139 -93.4581 -103.425 0.979553 -10.3107 -127.303 -55 -59.9652 
-64.4139 -78.8368 -83.7932 -55 -55 -55 -60.9842 -48.5634 
-64.4139 -88.7932 -133.559 -77.1799 -91.181 -104.808 -50.5628 -7.46704 
-64.4139 -79.3628 -55 -84.4898 -70.7902 -46.8388 -58.4616 -55 
-64.4139 -83.7944 -88.9945 -38.4913 -31.0203 -57.6208 -100.888 -83.6919 
-64.4139 -55 -69.2219 -27.5767 -0.783462 -67.2676 -53.4455 -79.0746 
-64.4139 -79.6045 -39.3826 29.9158 -55 -106.775 -25.3872 -103.474 
-64.4139 -92.321 -24.0884 -55 -66.7355 -37.058 20.908 -46.358 
-64.4139 -78.3614 -18.6656 -110.872 -103.66 -4.96702 -55 -21.9547 
-64.4139 -87.0659 15.0941 -32.4719 -28.4943 -55 -58.7636 -55 
-64.4139 -79.4836 -55 25.5795 -55 -114.543 -86.9906 -70.322 
-64.4139 -55 -104.365 -55 -54.9757 -26.2348 -105.334 -67.7398 
-64.4139 -80.0397 -58.1791 -91.1142 -89.7955 0.258192 33.2832 -78.2714 
-64.4139 -92.5448 -66.6611 -74.0421 -71.2956 -55 -55 -77.1092 
-64.4139 -78.3909 -122.688 -47.6607 -58.8432 -78.4429 -74.1302 -31.0817 
-64.4139 -87.3597 14.6294 -50.7386 -66.7476 -80.5029 -81.342 1.88643 
-64.4139 -55 -55 -56.3365 -73.7752 -78.207 -78.2729 -55 
-64.4139 -82.2701 -55.9749 -4.20529 -27.9925 -117.566 -74.1761 -104.697 
-64.4139 -93.4539 -64.2764 -55 13.6202 -4.23641 -77.0401 -44.2655 
-64.4139 -78.8327 -120.861 -108.387 -55 -55 -34.7261 -17.633 
-64.4139 -55 -4.61789 -2.60911 -64.4229 -113.707 -25.8859 -55 
-64.4139 -85.6855 -55 -55 -38.5425 -49.4718 -55 -116.914 
-64.4139 -94.0748 -187.083 -68.6578 -20.034 -8.98131 -44.6679 -55 
-64.4139 -80.5818 -55 -80.9614 -55 -55 -41.833 -93.5818 
-64.4139 -90.5239 -113.784 -4.47588 -55.1819 -124.264 -80.4173 -33.8077 
-64.4139 -79.4389 -17.903 -55 -65.5045 17.2577 -76.6191 -11.1011 
-64.4139 -55 7.00226 -109.423 -101.412 -55 -35.2849 -55 
-64.4139 -83.0169 -55 19.5674 -14.6621 -147.304 6.1028 -96.4611 
-64.4139 -93.6694 -104.701 -55 -55 -55 -55 -52.2582 
-64.4139 -79.0989 -140.837 -76.1229 -71.4316 -65.4115 -31.1328 8.01208 
-64.4139 -89.2229 -55 -83.6782 -79.9981 -77.2529 -2.70333 -55 
-64.4139 -79.3363 -90.6914 -38.2514 -30.5435 -88.8198 -55 -84.1994 
-64.4139 -84.2025 -105.307 -26.1472 20.211 -32.8752 -59.7675 -56.1693 
-64.4139 -79.5883 -40.2169 15.7712 -55 -5.77023 -73.3719 -66.5092 
-64.4139 -80.231 -26.7344 -55 -66.9487 -55 -81.2875 -76.8357 
-64.4139 -55 -41.0791 -75.5148 -103.991 -102.625 -53.0109 -34.3283 
-64.4139 -55 5.50116 -62.8733 -46.808 -80.5832 -24.8204 -34.9811 
-64.4139 -88.7506 -55 -55.2957 -46.4932 -107.754 -55 -36.9996 
-64.4139 -93.8374 -140.32 -24.0368 -15.2308 -5.58329 -88.1638 14.8553 
-64.4139 -83.3479 -55 24.5422 -55 -55 -73.8471 -55 
-64.4139 -55 -103.543 -55 -18.1017 -123.417 -125.208 -60.4783 
-64.4139 -55 -59.6307 -89.7157 24.0098 -3.00179 -55 -74.4206 
-64.4139 -100.468 -69.81 -54.2107 -55 -55 -20.9583 -80.7784 
-64.4139 -86.0018 -87.436 -29.3118 -69.6952 -115.506 22.4985 -55.1881 
-64.4139 -55 -69.7272 3.35262 -83.1251 -14.6966 -55 -61.5128 
-64.4139 -101.316 -75.1896 -55 -61.0329 -55 -25.4678 -70.1807 
-64.4139 -55 -133.079 -75.4987 -97.7488 -103.44 -55 -30.8626 
-64.4139 -106.688 -55 -62.8595 -40.0363 -41.7036 -27.8112 2.01257 
-64.4139 -55 -98.2982 -34.8782 -17.6994 -43.9222 -26.1112 -55 
-64.4139 -55 -6.02763 4.44296 -55 -70.5702 -55 -115.76 
-64.4139 -119.586 -55 -55 -46.8648 -70.1836 -29.0941 -13.7945 
-64.4139 -49.6361 -149.009 -69.3043 -62.7236 -72.4038 9.07017 -55 
-64.4139 -96.0143 -55 -81.8546 -37.4616 -75.7675 -55 -93.1242 
-64.4139 -99.1678 -138.422 -39.0362 7.50258 -46.6345 -95.5938 -33.1374 
-64.4139 -55 -55 -28.1617 -55 -42.0329 -70.5014 -8.51486 
-64.4139 -105.373 -67.4665 -55 -56.2736 -70.6699 -80.2642 -55 
-64.4139 -55 -111.526 -108.803 -56.4872 -60.4358 -40.8617 -72.4217 
-64.4139 -55 10.9836 -16.0778 -67.3617 -95.6908 -0.417293 -105.284 
-64.4139 -118.628 -55 -55 -77.7177 -86.692 -55 -67.3832 
-64.4139 -52.1554 -187.856 -68.6154 -73.3223 -25.0054 -50.2609 -19.4826 
-64.4139 -55 -55 -80.9017 -77.4205 28.919 -59.1871 -55 
-64.4139 -55 -55.8228 -18.6842 -28.5842 -55 -68.7873 -105.618 
-64.4139 -122.381 -40.6704 -55 10.8105 -142.733 -61.3179 -44.6476 
-64.4139 -41.8695 -78.2001 -109.043 -55 -55 -31.3584 -19.2894 
-64.4139 -55 -88.8185 -1.43019 -64.824 -112.589 -18.5331 -55 
-64.4139 -55 -21.8111 -55 -39.2365 -51.8779 -55 -117.449 
-64.4139 -55 -10.9754 -89.5422 -33.4937 -34.1584 16.5856 12.3612 
-64.4139 -55 -55 -54.2576 -9.49165 -39.2294 -55 -55 
-64.4139 -55 -93.0873 -2.77801 -55 -26.4244 -58.5803 -84.6003 
-64.4139 -144.207 -31.247 -55 -66.6651 -11.6691 -39.9457 -102.311 
-64.4139 -55 -48.3967 -109.967 -103.55 -55 6.76195 -28.4354 
-64.4139 -55 -25.9128 20.5873 -47.6005 -145.169 -55 6.72223 
-64.4139 -135.818 17.7133 -55 -29.1565 -55 -28.671 -55 
-64.4139 4.19039 -55 -76.5326 18.1521 -101.521 25.7054 -50.5317 
-64.4139 -55 -105.667 -43.3146 -55 -60.6075 -55 -46.7039 
-64.4139 -117.645 -45.3172 -21.8182 -47.8908 -62.0635 -30.997 -49.7354 
-64.4139 -54.6613 -43.7579 31.668 -52.249 -69.9883 -10.1202 -54.6262 
-64.4139 -103.677 -39.4248 -55 -60.0792 -74.958 -55 -62.7954 
-64.4139 -82.4392 -111.456 -111.955 -76.8894 -24.3509 -24.8658 -27.5833 
-64.4139 -107.496 -24.5758 -30.2909 -78.7643 28.382 12.2938 12.2697 
-64.4139 -62.9383 26.0257 -2.17098 -77.0274 -55 -55 -55 
-64.4139 -94.6531 -55 -55 -20.8035 -76.8239 -83.0085 -49.283 
-64.4139 -81.902 -152.312 -70.7669 28.5219 -75.7278 -76.1629 -21.871 
-64.4139 -91.8448 -55 -83.7518 -55 -78.1262 -86.7972 32.2044 
-64.4139 -79.4778 -104.442 -39 -54.2507 -85.8692 -109.674 -55 
-64.4139 -87.1468 -33.5033 -29.0434 -26.6672 -71.0668 -34.5237 -97.4386 
-64.4139 -79.7652 -9.16019 4.16035 13.9598 -73.9475 -14.5793 -64.2347 
-64.4139 -82.5133 -55 -55 -55 -73.7887 -55 -77.3653 
-64.4139 -79.3273 -189.717 -69.4895 -63.0355 -31.5974 -49.1129 -24.2033 
-64.4139 -79.1149 -55 -82.1042 -77.251 2.90526 -55.8291 24.0208 
-64.4139 -77.7171 -104.181 -39.0421 -70.2607 -55 -97.4217 -55 
-64.4139 -76.7818 -45.5513 6.20724 -42.6252 -112.364 -76.2599 -73.8885 
-64.4139 -55 -43.1452 -55 -36.8291 -21.6557 -78.5261 -82.9914 
-64.4139 -73.5838 -49.3961 -89.4658 -44.8375 20.6714 -1.47869 -80.625 
-64.4139 -55 -50.8699 -74.5749 -41.6699 -55 -55 -78.4102 
-64.4139 -55 -66.6936 -26.0988 -14.2885 -108.364 -38.3774 -56.5035 
-64.4139 -55 -38.5444 -55 -55 -66.4488 7.8774 -87.0716 
-64.4139 -105.558 -34.8359 -88.5811 -90.5439 -92.8335 -55 -72.2702 
-64.4139 -79.1762 -47.4638 -74.7711 -52.1157 -26.572 -60.1356 -51.7046 
-64.4139 -110.038 -45.1749 -80.2175 -57.9096 18.2605 -74.1463 -52.4876 
-64.4139 -57.0771 -39.6859 -77.7394 -66.4853 -55 -81.6534 -53.7102 
-64.4139 -55 -36.8984 -42.6292 -74.5041 -115.375 -94.1758 -33.5734 
-64.4139 -96.4318 17.8685 -14.0405 -76.4917 -45.6951 -29.6602 -28.7488 
-64.4139 -55 -55 -55 -75.3998 -43.4526 5.33933 11.7093 
-64.4139 -55 -116.462 -45.1367 -88.1863 -64.6057 -55 -55 
-64.4139 -112.109 -0.581326 -23.699 -11.3369 -65.6423 -23.5086 -92.071 
-64.4139 -55 -55 26.1982 -55 -72.7331 25.2232 -67.1267 
-64.4139 -115.431 -70.4236 -55 -50.4311 -115.28 -55 -87.2513 
-64.4139 -60.0267 -164.183 -109.84 -58.6894 -55 -20.4588 -25.159 
-64.4139 -109.518 -55 0.0489881 -65.8429 -110.934 18.9262 -55 
-64.4139 -55 -91.3378 -55 -24.8864 -33.882 -55 -79.6821 
-64.4139 -107.523 -117.634 -90.1425 19.4235 13.3828 11.0731 -56.402 
-64.4139 -75.9862 -4.75879 -74.3824 -55 -55 -55 -63.3115 
-64.4139 -55 -55 -46.9193 -46.0259 -76.3043 -82.4489 -25.9901 
-64.4139 -55 -68.5077 12.5859 -35.2472 -118.998 -82.8842 7.66407 
-64.4139 -115.32 -42.6495 -55 -16.1082 -30.9991 -49.691 -55 
-64.4139 -55 -71.7335 -109.68 -55 14.9323 -17.4632 -70.6971 
-64.4139 -55 -42.3949 -14.4654 -67.2032 -55 -55 -103.258 
-64.4139 -125.879 -47.475 -55 -60.6666 -108.052 -44.1949 -25.7083 
-64.4139 -31.2705 -93.6122 -109.964 -97.2143 -23.3249 -6.17007 -55 
-64.4139 -50.1963 -50.259 -34.227 -23.3205 29.013 -55 -92.6763 
-64.4139 -97.1278 -86.7433 -14.0666 -55 -55 -63.8945 -44.5914 
-64.4139 -97.2226 -80.5874 -55 -65.8132 -117.539 -97.22 -19.2069 
-64.4139 -55 -119.553 -109.804 -102.186 3.20649 -23.7707 -55 
-64.4139 -55 -55 -14.2325 -13.4841 -55 -55 -117.509 
-64.4139 -114.446 -111.358 -55 -55 -120.531 -73.799 23.7403 
-64.4139 -62.2863 -68.9927 -110.057 -90.743 13.0593 -43.2829 -55 
-64.4139 -111.247 -59.2325 -34.0495 -34.4672 -55 -42.4248 -95.298 
-64.4139 -60.3298 -73.9009 20.9509 -13.2974 -119.039 -55.1555 -43.8991 
-64.4139 -98.7062 -71.9284 -55 -55 -5.92858 -65.321 -41.6298 
-64.4139 -55 -118.535 -110.742 -91.8482 -55 -35.2261 -13.095 
-64.4139 -55 28.0574 22.0824 -70.5092 -149.828 2.7821 -55 
-64.4139 -108.271 -55 -55 -42.5864 -55 -55 -118.885 
-64.4139 -55 -194.694 -36.4289 -31.36 -76.7133 -64.3715 -55 
-64.4139 -112.322 -55 -4.81744 34.4635 -113.289 -43.4071 -118.973 
-64.4139 -66.8979 -98.6353 -55 -55 -31.702 -71.3897 6.26335 
-64.4139 -113.419 -100.077 -113.274 -92.4553 9.37874 -38.5315 -55 
-64.4139 -55 -36.3372 -27.5096 -33.7345 -55 -25.6668 -95.8954 
-64.4139 -55 10.8982 -55 -12.244 -148.193 -55 -67.2956 
-64.4139 -114.502 -55 -91.8796 -55 -55 16.9787 -57.2065 
-64.4139 -55 -112.986 1.47863 -57.0346 -126.196 -55 -33.5796 
-64.4139 -117.369 -21.3021 -55 -51.0622 30.374 -27.7926 -10.8638 
-64.4139 -55.351 -7.43484 -112.583 -83.5525 -55 -55 -55 
-64.4139 -104.564 -55 5.52768 -22.4011 -80.5175 -79.6566 -49.3643 
-64.4139 -80.1613 -103.756 -55 -55 -90.9471 -115.958 -44.1646 
-64.4139 -108.431 -93.9536 -112.515 -91.9022 -57.8946 23.9951 -20.6808 
-64.4139 -55 -63.1315 -29.1266 -70.4849 -67.4647 -55 -55 
-64.4139 -99.7885 -59.9427 21.9051 -23.7104 -68.9404 -27.9718 -96.5111 
-64.4139 -86.7558 -66.1647 -55 26.556 -75.8184 3.61799 -64.2704 
-64.4139 -100.679 -119.07 -112.44 -55 -63.3284 -55 -53.9305 
-64.4139 -55 -32.9734 -29.2844 -49.0927 -32.0711 -64.1854 -38.6675 
-64.4139 -96.9753 33.3555 21.3862 -55.8796 -31.6698 -47.7165 -49.6738 
-64.4139 -89.4863 -55 -55 -67.1036 0.179118 -55.086 -52.6461 
-64.4139 -95.604 -149.49 -71.6868 -91.8284 -55 -57.1855 -24.4735 
-64.4139 -55 -55 -50.3467 -68.0863 -114.299 -85.5288 -55 
-64.4139 -55 -55.3287 1.82293 -28.1368 -57.4775 -73.0741 -105.549 
-64.4139 -105.263 -27.7875 -55 11.1392 -95.3705 -45.1163 -66.8228 
-64.4139 -79.6285 -35.7925 -112.196 -55 -46.748 -1.38744 -53.4113 
-64.4139 -109.647 -16.0414 -29.7938 -65.9282 -42.882 -55 -58.5118 
-64.4139 -55 25.0889 -0.571984 -58.6588 4.38912 -58.3078 -42.7307 
-64.4139 -100.616 -55 -55 -68.9446 -55 -35.9595 -58.1719 
-64.4139 -85.8319 -165.532 -36.4604 -90.8955 -110.281 -24.4329 -9.14949 
-64.4139 -102.163 -55 -25.2404 -67.4971 -29.1273 22.4573 -55 
-64.4139 -73.0117 -93.3759 -55 -26.191 -1.91677 -55 -80.4123 
-64.4139 -98.0601 -151.545 -112.785 14.1206 -55 -19.553 -32.9211 
-64.4139 -73.8004 -55 5.95495 -55 -115.8 23.7268 15.1737 
-64.4139 -91.555 -103.154 -55 -53.7476 -23.3258 -55 -55 
-64.4139 -55 -119.365 -112.669 -31.2647 -55 -22.6415 -49.2958 
-64.4139 -55 24.9395 26.0047 -2.57665 -147.104 -55 -56.9394 
-64.4139 -96.5511 -55 -55 -55 -55 -31.1644 -68.4981 
-64.4139 -89.843 -162.916 -37.8877 -81.1084 -112.361 -16.0106 -22.679 
-64.4139 -94.8525 -55 -30.8441 -80.7314 -24.9546 -55 30.9754 
-64.4139 -83.7876 -139.886 33.7826 -49.1101 -55 -96.4294 -55 
-64.4139 -92.637 -55 -55 -15.6087 -116.609 -85.6346 -73.5563 
-64.4139 -80.1161 -151.003 -73.896 -55 -8.4089 -70.3269 -49.3894 
-64.4139 -88.4399 -55 -87.2359 -66.5704 -55 -82.4222 -54.8927 
-64.4139 -55 -115.085 -4.02065 -67.456 -126.676 -125.769 -30.8248 
-64.4139 -55 19.9382 -55 -77.8538 -5.86788 -55 -25.1661 
-64.4139 -94.8736 -55 -92.3269 -84.5006 -55 18.166 -55 
-64.4139 -55 -105.21 1.68811 -26.3528 -127.057 -55 -61.4475 
-64.4139 -55 -46.3064 -55 -55 33.1573 -26.8606 -75.4358 
-64.4139 -110.973 -58.5417 -92.6073 -89.2442 -55 -55 -82.4905 
-64.4139 -69.6383 -115.762 -38.8612 -52.4946 -81.1959 -78.9249 -31.9399 
-64.4139 -113.836 -11.094 -31.1397 -57.5772 -81.9191 -85.0713 -3.59715 
-64.4139 -55 -55 -5.6216 -65.0987 -79.6644 -79.5884 -55 
-64.4139 -55 -56.4736 -55 -25.0278 -119.017 -77.0567 -106.564 
-64.4139 -55 -78.0477 -91.4121 -0.708576 -18.6077 -4.48186 -43.1614 
-64.4139 -55 -43.0925 -53.6252 -55 20.4306 -55 -62.2313 
-64.4139 -55 -38.0249 -43.8694 -46.0512 -55 -24.7163 -72.7863 
-64.4139 -136.12 1.12562 12.2155 -46.4683 -146.731 -55 -79.1401 
-64.4139 5.39516 -55 -55 -27.8676 -55 -61.4558 -52.801 
-64.4139 -55 -163.964 -35.6866 -3.55044 -112.068 -81.9863 -0.309086 
-64.4139 -117.889 -55 -1.8367 -55 -56.2571 -46.532 -55 
-64.4139 -54.0458 -92.1451 -55 -19.5886 -73.4402 -78.9594 -80.3847 
-64.4139 -102.852 -115.614 -112.824 15.9918 -64.3706 -38.4038 -55.907 
-64.4139 -84.4926 -12.1195 -28.4742 -55 -71.8476 -25.0845 -63.1167 
-64.4139 -55 -55 3.77678 -70.5453 -75.2235 21.332 -71.3824 
-64.4139 -55 -68.8824 -55 -73.0819 -114.775 -55 -88.3539 
-64.4139 -55 -127.229 -91.9003 -88.9989 9.44741 15.9343 -46.9985 
-64.4139 -121.704 -55 -53.4141 -73.7596 -55 -55 -66.5774 
-64.4139 -43.8079 -151.407 11.0123 -49.6024 -83.3733 -109.112 -14.8922 
-64.4139 -84.4922 -55 -55 -52.5967 -74.2213 -38.8795 -55 
-64.4139 -55 -138.604 -71.1415 -34.9192 -72.0555 -19.8324 -56.567 
-64.4139 -111.877 -55 -63.9128 -12.9628 -105.156 -55 -87.7843 
-64.4139 -55 -139.966 -37.4408 -55 -9.18683 -92.056 -36.1126 
-64.4139 -115.243 -55 -4.91893 -65.5898 -55 -38.4106 -38.8377 
-64.4139 -60.4648 -115.257 -55 -65.8736 -121.008 -74.7657 10.0603 
-64.4139 -109.887 -62.0538 -110.835 -100.834 20.7594 -40.2708 -55 
-64.4139 -55 -58.3809 -32.5444 -15.0935 -55 -31.634 -92.3149 
-64.4139 -107.393 -42.0322 -55 -55 -145.091 14.2889 -69.5457 
-64.4139 -76.2061 -79.731 -110.328 -89.7139 -55 -55 -54.7356 
-64.4139 -112.118 -122.95 0.97962 -52.3732 -76.6541 -75.7298 -15.4493 
-64.4139 -52.4436 17.42 -55 -57.7269 -79.2577 -82.7906 -55 
-64.4139 -82.1434 -55 -110.808 -53.9585 -64.3092 -37.5962 -70.4082 
-64.4139 -97.3934 -101.488 8.09157 -48.0252 -81.4801 -53.9714 -67.8358 
-64.4139 -75.8789 -49.4443 -55 -47.2331 -74.2707 -61.3806 -76.5922 
-64.4139 -55 -97.077 -111.325 -69.9692 -61.8173 -29.7795 -55.4301 
-64.4139 -55 -21.0091 -11.2736 -74.7105 -97.7216 -55 -84.9357 
-64.4139 -55 -55 -55 -55.9884 -45.7928 -23.0704 -72.7805 
-64.4139 -55 -114.382 -50.2198 -73.2509 -65.1514 -55 -65.0499 
-64.4139 -55 -17.4254 -39.3839 -54.7074 -61.3984 -25.9292 -70.7704 
-64.4139 -55 -55 -12.0263 -56.5626 -95.2981 -55 -96.4988 
-64.4139 -132.679 -105.106 -55 -29.2158 -57.517 -58.6525 -43.9055 
-64.4139 -55 -90.4915 -111.763 -13.6203 -45.5041 -33.2263 -10.8477 
-64.4139 -55 -32.7047 -10.3862 -55 -66.5941 20.476 -55 
-64.4139 -55 -55 -55 -25.5208 -98.8603 -55 -112.317 
-64.4139 -55 -152.268 -50.5518 25.839 -37.2049 -18.5765 11.8203 
-64.4139 -149.547 -55 -40.3365 -55 -43.2392 -55 -55 
-64.4139 -55 -127.641 5.42659 -0.323719 -1.47117 -95.7291 -57.1173 
-64.4139 -55 -55 -55 -55 -55 -36.1649 -89.9301 
-64.4139 -55 -127.867 -16.8926 -83.6874 -137.277 4.47436 -37.6521 
-64.4139 -145.281 -55 -55 -81.5262 -55 -55 -44.5567 
-64.4139 -55 -199.798 -39.1746 -75.5502 -69.825 -69.2446 -55 
-64.4139 -142.3 -55 -15.4594 -44.2101 -106.136 -50.9866 -115.61 
-64.4139 31.5771 -102.642 -55 -30.1899 -46.1593 -92.0739 -2.08756 
-64.4139 -55 -95.4649 -114.948 -23.2075 -27.6508 -30.6455 -55 
-64.4139 -55 -12.9759 -3.48157 -55 -14.8732 31.6514 -117.154 
-64.4139 -55 -55 -55 -66.6539 -55 -55 -33.4239 
-64.4139 -143.34 -163.846 -18.4634 -73.4828 -102.4 -32.8495 -55 
-64.4139 -55 -55 -55 -43.6157 -48.1771 -13.5353 -93.6185 
