0l0 1l0 5l1 6l2 
-55 -55.25 -55.25 -55.25 
-55 -55.6475 -89.6473 -55.6475 
-55 -56.263 -96.6618 -56.263 
-93.5288 -57.1852 -85.6086 -57.1852 
-55 -58.504 -64.9221 -58.504 
-55 -60.2646 -98.7785 -60.2646 
-55 -62.3865 -80.2172 -62.3865 
-55 -64.5939 -100.892 -64.5939 
-55 -66.4711 -74.8612 -66.4711 
-55 -67.6977 -100.887 -67.6977 
-55 -68.2519 -74.0224 -68.2519 
-145.418 -68.3325 -100.084 -68.3325 
-55 -68.154 -40.9914 -68.154 
-55 -67.856 -53.2779 -67.856 
-55 -67.5124 -81.5884 -67.5124 
-55 -67.1594 -99.2479 -67.1594 
-55 -66.815 -77.2276 -66.815 
-55 -66.4879 -99.8917 -66.4879 
-55 -66.1822 -75.2665 -66.1822 
-167.755 -65.9001 -99.4453 -65.9001 
-55 -65.6423 -41.619 -65.6423 
-55 -65.4091 -54.4115 -65.4091 
-152.454 -65.2 -82.9891 -65.2 
-55 -65.0147 -63.9369 -65.0147 
-55 -64.8524 -95.3703 -64.8524 
-55 -64.7123 -83.943 -64.7123 
-55 -64.5933 -96.8035 -64.5933 
-161.224 -64.4943 -80.788 -64.4943 
-55 -64.4141 -63.9634 -64.4141 
-155.214 -64.3511 -94.381 -64.3511 
-55 -64.304 -50.6041 -64.304 
-55 -64.2709 -75.4 -64.2709 
-55 -64.2503 -99.9142 -64.2503 
-55 -64.2403 -75.1148 -64.2403 
-55 -64.2392 -99.3508 -64.2392 
-55 -64.2452 -75.7199 -64.2452 
-161.788 -64.2567 -98.8899 -64.2567 
-55 -64.2722 -42.1976 -64.2722 
-142.876 -64.2901 -55.5118 -64.2901 
-55 -64.3094 -50.3502 -64.3094 
-140.352 -64.3288 -75.795 -64.3288 
22.9949 -64.3477 -66.7057 -64.3477 
-55 -64.3653 -63.9113 -64.3653 
-121.319 -64.3812 -95.9105 -64.3812 
-55 -64.395 -49.5584 -64.395 
-55 -64.4067 -74.5547 -64.4067 
-55 -64.4162 -101.054 -64.4162 
-55 -64.4236 -73.8393 -64.4236 
-142.839 -64.4291 -100.213 -64.4291 
-55 -64.4327 -40.8671 -64.4327 
-55 -64.4348 -53.057 -64.4348 
-55 -64.4356 -81.3116 -64.4356 
-55 -64.4354 -99.4944 -64.4354 
-55 -64.4343 -76.8472 -64.4343 
-159.642 -64.4327 -100.038 -64.4327 
-55 -64.4306 -41.0602 -64.4306 
-141.191 -64.4283 -53.4448 -64.4283 
-55 -64.426 -47.8576 -64.426 
-55 -64.4236 -71.4936 -64.4236 
-55 -64.4213 -101.078 -64.4213 
-55 -64.4193 -74.3234 -64.4193 
-154.573 -64.4174 -100.727 -64.4174 
-55 -64.4158 -40.2374 -64.4158 
-55 -64.4145 -51.6858 -64.4145 
-55 -64.4134 -79.1731 -64.4134 
-158.695 -64.4126 -100.735 -64.4126 
-55 -64.412 -40.7178 -64.412 
-55 -64.4116 -53.4589 -64.4116 
-146.053 -64.4114 -82.7441 -64.4114 
-55 -64.4113 -65.3392 -64.4113 
-55 -64.4114 -97.6621 -64.4114 
-55 -64.4115 -80.9795 -64.4115 
-153.105 -64.4117 -99.3984 -64.4117 
-55 -64.412 -42.8101 -64.412 
-55 -64.4123 -58.5266 -64.4123 
-55 -64.4125 -89.9515 -64.4125 
-55 -64.4128 -92.2207 -64.4128 
-55 -64.4131 -88.8355 -64.4131 
-55 -64.4133 -92.5654 -64.4133 
-55 -64.4135 -87.5373 -64.4135 
-55 -64.4137 -93.1896 -64.4137 
-55 -64.4139 -86.0064 -64.4139 
-55 -64.414 -94.0414 -64.414 
-55 -64.4141 -84.2451 -64.4141 
-55 -64.4141 -95.0034 -64.4141 
-55 -64.4142 -82.3685 -64.4142 
-182.982 -64.4142 -95.8896 -64.4142 
-55 -64.4142 -46.6412 -64.4142 
-172.838 -64.4142 -65.6202 -64.4142 
-55 -64.4142 -61.2252 -64.4142 
-164.621 -64.4142 -91.5394 -64.4142 
-55 -64.4141 -54.6438 -64.4141 
-145.1 -64.4141 -82.6636 -64.4141 
-55 -64.4141 -63.4996 -64.4141 
-55 -64.414 -94.4068 -64.414 
-55 -64.414 -84.975 -64.414 
-142.454 -64.414 -95.5957 -64.414 
-55 -64.414 -48.4266 -64.414 
-140.01 -64.4139 -70.7186 -64.4139 
21.518 -64.4139 -65.0244 -64.4139 
-55 -64.4139 -61.9333 -64.4139 
-55 -64.4139 -93.3671 -64.4139 
-135.977 -64.4139 -87.0346 -64.4139 
-55 -64.4139 -60.2485 -64.4139 
-55 -64.4139 -91.0572 -64.4139 
-55 -64.4139 -89.8658 -64.4139 
-55 -64.4139 -90.9451 -64.4139 
-55 -64.4139 -89.2897 -64.4139 
-55 -64.4139 -90.9722 -64.4139 
-55 -64.4139 -88.6894 -64.4139 
-55 -64.4139 -91.1341 -64.4139 
-55 -64.4139 -88.0374 -64.4139 
-55 -64.4139 -91.4275 -64.4139 
-55 -64.4139 -87.3084 -64.4139 
-55 -64.4139 -91.847 -64.4139 
-55 -64.4139 -86.4805 -64.4139 
-179.064 -64.4139 -92.3818 -64.4139 
-55 -64.4139 -51.5416 -64.4139 
-169.664 -64.4139 -75.4424 -64.4139 
-55 -64.4139 -64.3126 -64.4139 
-55 -64.4139 -93.9334 -64.4139 
-55 -64.4139 -84.6052 -64.4139 
-55 -64.4139 -94.911 -64.4139 
-171.386 -64.4139 -82.6682 -64.4139 
-55 -64.4139 -61.8488 -64.4139 
-55 -64.4139 -91.2957 -64.4139 
-55 -64.4139 -88.1242 -64.4139 
-55 -64.4139 -91.5994 -64.4139 
-55 -64.4139 -87.3156 -64.4139 
-55 -64.4139 -92.0465 -64.4139 
-176.982 -64.4139 -86.3958 -64.4139 
-55 -64.4139 -58.6217 -64.4139 
-167.978 -64.4139 -87.0446 -64.4139 
-55 -64.4139 -58.6289 -64.4139 
-55 -64.4139 -87.5917 -64.4139 
-55 -64.4139 -92.5733 -64.4139 
-55 -64.4139 -86.3812 -64.4139 
-170.39 -64.4139 -93.265 -64.4139 
-55 -64.4139 -50.9979 -64.4139 
-55 -64.4139 -75.0321 -64.4139 
-55 -64.4139 -98.8936 -64.4139 
-55 -64.4139 -76.1923 -64.4139 
-55 -64.4139 -98.4963 -64.4139 
-55 -64.4139 -76.6099 -64.4139 
-55 -64.4139 -98.1577 -64.4139 
-55 -64.4139 -76.9688 -64.4139 
-55 -64.4139 -97.8689 -64.4139 
-176.324 -64.4139 -77.2778 -64.4139 
-55 -64.4139 -63.6235 -64.4139 
-55 -64.4139 -92.8388 -64.4139 
-55 -64.4139 -85.7947 -64.4139 
-55 -64.4139 -93.5893 -64.4139 
-55 -64.4139 -84.3579 -64.4139 
-55 -64.4139 -94.4198 -64.4139 
-55 -64.4139 -82.8363 -64.4139 
-55 -64.4139 -95.2124 -64.4139 
-176.309 -64.4139 -81.3892 -64.4139 
-55 -64.4139 -61.8448 -64.4139 
-167.433 -64.4139 -90.6726 -64.4139 
-55 -64.4139 -54.3643 -64.4139 
-55 -64.4139 -80.9704 -64.4139 
-55 -64.4139 -97.3183 -64.4139 
-167.132 -64.4139 -78.8212 -64.4139 
-55 -64.4139 -63.754 -64.4139 
-159.999 -64.4139 -93.3747 -64.4139 
-55 -64.4139 -51.3914 -64.4139 
-55 -64.4139 -76.2776 -64.4139 
-55 -64.4139 -99.265 -64.4139 
-55 -64.4139 -75.8387 -64.4139 
-156.385 -64.4139 -98.8415 -64.4139 
-55 -64.4139 -42.2502 -64.4139 
-55 -64.4139 -55.615 -64.4139 
-155.815 -64.4139 -84.4779 -64.4139 
-55 -64.4139 -62.4746 -64.4139 
-138.187 -64.4139 -93.5736 -64.4139 
-55 -64.4139 -52.4033 -64.4139 
-136.554 -64.4139 -79.3181 -64.4139 
-55 -64.4139 -65.6126 -64.4139 
-55 -64.4139 -96.7145 -64.4139 
-55 -64.4139 -81.6144 -64.4139 
-146.872 -64.4139 -98.1597 -64.4139 
-55 -64.4139 -44.3237 -64.4139 
-55 -64.4139 -61.605 -64.4139 
-148.88 -64.4139 -92.9368 -64.4139 
-55 -64.4139 -53.5934 -64.4139 
-145.215 -64.4139 -81.6628 -64.4139 
-55 -64.4139 -64.7779 -64.4139 
-55 -64.4139 -96.1769 -64.4139 
-55 -64.4139 -82.6629 -64.4139 
-55 -64.4139 -97.688 -64.4139 
-156.95 -64.4139 -79.2767 -64.4139 
-55 -64.4139 -64.6063 -64.4139 
-55 -64.4139 -95.0008 -64.4139 
-55 -64.4139 -83.6733 -64.4139 
-55 -64.4139 -96.223 -64.4139 
-55 -64.4139 -81.1004 -64.4139 
-55 -64.4139 -97.2112 -64.4139 
-162.593 -64.4139 -78.9688 -64.4139 
-55 -64.4139 -63.6719 -64.4139 
-143.508 -64.4139 -93.2642 -64.4139 
-55 -64.4139 -51.5227 -64.4139 
-55 -64.4139 -76.5002 -64.4139 
-55 -64.4139 -99.2147 -64.4139 
-151.435 -64.4139 -75.9077 -64.4139 
-55 -64.4139 -64.8124 -64.4139 
-55 -64.4139 -94.8114 -64.4139 
-55 -64.4139 -83.6466 -64.4139 
-55 -64.4139 -95.9508 -64.4139 
-151.483 -64.4139 -81.2985 -64.4139 
-55 -64.4139 -62.885 -64.4139 
-55 -64.4139 -92.6211 -64.4139 
-55 -64.4139 -86.5506 -64.4139 
-55 -64.4139 -93.3214 -64.4139 
-55 -64.4139 -85.1015 -64.4139 
-164.236 -64.4139 -94.1609 -64.4139 
-55 -64.4139 -49.5053 -64.4139 
-157.653 -64.4139 -71.9184 -64.4139 
-55 -64.4139 -64.4086 -64.4139 
-55 -64.4139 -94.5243 -64.4139 
-55 -64.4139 -84.1522 -64.4139 
-150.436 -64.4139 -95.6464 -64.4139 
-55 -64.4139 -47.8426 -64.4139 
-133.964 -64.4139 -69.0119 -64.4139 
-3.02071 -64.4139 -63.9314 -64.4139 
-55 -64.4139 -60.7033 -64.4139 
-124.981 -64.4139 -91.7691 -64.4139 
-55 -64.4139 -55.0849 -64.4139 
-125.857 -64.4139 -84.0409 -64.4139 
-55 -64.4139 -63.1683 -64.4139 
-55 -64.4139 -94.5933 -64.4139 
-55 -64.4139 -85.1385 -64.4139 
-55 -64.4139 -95.8685 -64.4139 
-145.519 -64.4139 -82.3338 -64.4139 
-55 -64.4139 -63.1303 -64.4139 
-142.493 -64.4139 -93.5594 -64.4139 
-55 -64.4139 -51.8194 -64.4139 
-140.042 -64.4139 -77.7048 -64.4139 
21.6538 -64.4139 -65.5907 -64.4139 
-55 -64.4139 -62.3109 -64.4139 
-55 -64.4139 -93.6867 -64.4139 
-55 -64.4139 -86.489 -64.4139 
-55 -64.4139 -94.6889 -64.4139 
-55 -64.4139 -84.2035 -64.4139 
-147.008 -64.4139 -95.8833 -64.4139 
-55 -64.4139 -47.6949 -64.4139 
-55 -64.4139 -68.9055 -64.4139 
-148.979 -64.4139 -98.0773 -64.4139 
-55 -64.4139 -44.4818 -64.4139 
-55 -64.4139 -61.9992 -64.4139 
-139.189 -64.4139 -93.3554 -64.4139 
-55 -64.4139 -52.978 -64.4139 
-55 -64.4139 -80.5764 -64.4139 
-55 -64.4139 -99.3094 -64.4139 
-55 -64.4139 -76.7456 -64.4139 
-153.391 -64.4139 -99.6405 -64.4139 
-55 -64.4139 -41.4815 -64.4139 
-136.284 -64.4139 -54.2602 -64.4139 
-55 -64.4139 -48.9373 -64.4139 
-135.013 -64.4139 -73.5012 -64.4139 
-55 -64.4139 -67.1916 -64.4139 
-55 -64.4139 -98.7767 -64.4139 
-140.235 -64.4139 -78.7009 -64.4139 
-55 -64.4139 -66.0657 -64.4139 
-55 -64.4139 -97.2916 -64.4139 
-144.041 -64.4139 -80.8078 -64.4139 
-55 -64.4139 -64.7346 -64.4139 
-55 -64.4139 -95.7399 -64.4139 
-146.816 -64.4139 -83.0354 -64.4139 
-55 -64.4139 -63.141 -64.4139 
-55 -64.4139 -93.9498 -64.4139 
-55 -64.4139 -85.5753 -64.4139 
-55 -64.4139 -95.023 -64.4139 
-55 -64.4139 -83.2706 -64.4139 
-161.755 -64.4139 -96.165 -64.4139 
-55 -64.4139 -46.9112 -64.4139 
-55 -64.4139 -66.8829 -64.4139 
-55 -64.4139 -96.6896 -64.4139 
-163.407 -64.4139 -80.8029 -64.4139 
-55 -64.4139 -63.7944 -64.4139 
-156.982 -64.4139 -94.0844 -64.4139 
-55 -64.4139 -50.933 -64.4139 
-151.778 -64.4139 -75.9303 -64.4139 
-55 -64.4139 -65.7815 -64.4139 
-147.563 -64.4139 -96.4368 -64.4139 
-55 -64.4139 -47.7267 -64.4139 
-55 -64.4139 -69.8327 -64.4139 
-55 -64.4139 -99.2663 -64.4139 
-154.095 -64.4139 -76.9009 -64.4139 
-55 -64.4139 -65.6835 -64.4139 
-55 -64.4139 -96.3507 -64.4139 
-55 -64.4139 -81.8641 -64.4139 
-55 -64.4139 -97.6949 -64.4139 
-153.006 -64.4139 -78.8726 -64.4139 
-55 -64.4139 -64.3854 -64.4139 
-55 -64.4139 -94.508 -64.4139 
-153.351 -64.4139 -84.1812 -64.4139 
-55 -64.4139 -61.629 -64.4139 
-55 -64.4139 -91.7446 -64.4139 
-55 -64.4139 -88.1503 -64.4139 
-147.7 -64.4139 -92.1182 -64.4139 
-55 -64.4139 -53.107 -64.4139 
-55 -64.4139 -79.3702 -64.4139 
-55 -64.4139 -98.4964 -64.4139 
-55 -64.4139 -77.1668 -64.4139 
-158.417 -64.4139 -98.5748 -64.4139 
-55 -64.4139 -42.6265 -64.4139 
-55 -64.4139 -56.4853 -64.4139 
-55 -64.4139 -85.6889 -64.4139 
-55 -64.4139 -95.3784 -64.4139 
-55 -64.4139 -83.1002 -64.4139 
-159.581 -64.4139 -96.6312 -64.4139 
-55 -64.4139 -46.4365 -64.4139 
-153.883 -64.4139 -66.0866 -64.4139 
-55 -64.4139 -62.4107 -64.4139 
-55 -64.4139 -93.5379 -64.4139 
-153.991 -64.4139 -86.4833 -64.4139 
-55 -64.4139 -60.4936 -64.4139 
-136.755 -64.4139 -91.1117 -64.4139 
7.94469 -64.4139 -55.5806 -64.4139 
-55 -64.4139 -50.5054 -64.4139 
-55 -64.4139 -76.1416 -64.4139 
-126.211 -64.4139 -100.712 -64.4139 
-30.2108 -64.4139 -40.2398 -64.4139 
-55 -64.4139 -17.6675 -64.4139 
-119.504 -64.4139 30.5886 -64.4139 
-49.8553 -64.4139 -55 -64.4139 
-55 -64.4139 -58.7001 -82.5204 
-55 -64.4139 -97.7274 -66.6343 
-122.938 -64.4139 -87.2904 -65.6445 
-55 -64.4139 -66.5715 -64.9326 
-55 -64.4139 -102.828 -64.395 
-55 -64.4139 -74.362 -63.9823 
-55 -64.4139 -104.118 -63.6674 
-143.795 -64.4139 -69.8479 -63.4339 
-55 -64.4139 -67.6208 -63.2714 
-128.752 -64.4139 -100.39 -63.1718 
-55 -64.4139 -42.735 -63.1287 
-55 -64.4139 -60.0176 -63.1362 
-55 -64.4139 -93.3456 -63.1876 
-55 -64.4139 -89.0291 -63.2762 
-55 -64.4139 -93.9361 -63.3942 
-152.155 -64.4139 -86.9591 -63.5332 
-55 -64.4139 -61.0029 -63.6845 
-55 -64.4139 -92.5404 -63.8396 
-55 -64.4139 -88.4077 -63.9909 
-55 -64.4139 -93.0387 -64.1317 
-55 -64.4139 -86.8804 -64.2572 
-55 -64.4139 -93.8349 -64.3642 
-167.783 -64.4139 -85.0704 -64.4512 
-55 -64.4139 -60.8322 -64.5182 
-55 -64.4139 -90.7439 -64.5664 
-55 -64.4139 -89.36 -64.5976 
-167.362 -64.4139 -90.7304 -64.6143 
-55 -64.4139 -54.8492 -64.619 
-55 -64.4139 -82.2617 -64.6141 
-55 -64.4139 -97.0729 -64.6022 
-55 -64.4139 -79.6189 -64.5852 
-55 -64.4139 -97.8165 -64.565 
-172.674 -64.4139 -77.8887 -64.5432 
-55 -64.4139 -63.9621 -64.5209 
-164.489 -64.4139 -93.5455 -64.4992 
-55 -64.4139 -51.1207 -64.4789 
-55 -64.4139 -75.7426 -64.4603 
-55 -64.4139 -99.2962 -64.4439 
-55 -64.4139 -75.7806 -64.4298 
-55 -64.4139 -98.8468 -64.4181 
-55 -64.4139 -76.2427 -64.4087 
-55 -64.4139 -98.4576 -64.4015 
-55 -64.4139 -76.651 -64.3964 
-55 -64.4139 -98.1247 -64.393 
-179.866 -64.4139 -77.004 -64.3912 
-55 -64.4139 -63.8411 -64.3907 
-170.314 -64.4139 -93.1954 -64.3912 
-55 -64.4139 -51.4198 -64.3926 
-55 -64.4139 -76.1255 -64.3945 
-55 -64.4139 -99.0936 -64.3968 
-169.022 -64.4139 -76.0066 -64.3992 
-55 -64.4139 -64.6863 -64.4018 
-55 -64.4139 -94.5989 -64.4043 
-55 -64.4139 -83.8865 -64.4067 
-168.175 -64.4139 -95.7023 -64.4088 
-55 -64.4139 -47.6346 -64.4107 
-55 -64.4139 -68.4529 -64.4123 
-55 -64.4139 -97.5612 -64.4137 
-167.619 -64.4139 -79.1765 -64.4147 
-55 -64.4139 -64.3466 -64.4156 
-55 -64.4139 -94.5206 -64.4161 
-152.358 -64.4139 -84.2035 -64.4165 
-55 -64.4139 -61.65 -64.4167 
-135.473 -64.4139 -91.8002 -64.4167 
-55 -64.4139 -54.1052 -64.4166 
-55 -64.4139 -81.5967 -64.4164 
-55 -64.4139 -97.961 -64.4162 
-55 -64.4139 -78.5032 -64.4159 
-55 -64.4139 -98.5925 -64.4156 
-155.727 -64.4139 -76.8482 -64.4153 
-55 -64.4139 -64.4999 -64.415 
-55 -64.4139 -94.3415 -64.4147 
-55 -64.4139 -84.2002 -64.4145 
-159.452 -64.4139 -95.4032 -64.4142 
-55 -64.4139 -48.0536 -64.4141 
-55 -64.4139 -69.305 -64.4139 
-158.051 -64.4139 -97.9158 -64.4138 
-55 -64.4139 -44.454 -64.4137 
-55 -64.4139 -61.643 -64.4136 
-55 -64.4139 -92.721 -64.4136 
-55 -64.4139 -87.6692 -64.4136 
-55 -64.4139 -93.3692 -64.4136 
-55 -64.4139 -86.0217 -64.4136 
-170.603 -64.4139 -94.2735 -64.4136 
-55 -64.4139 -50.1103 -64.4136 
-55 -64.4139 -73.8351 -64.4137 
-55 -64.4139 -99.3465 -64.4137 
-55 -64.4139 -75.8047 -64.4138 
-55 -64.4139 -98.9537 -64.4138 
-55 -64.4139 -76.1353 -64.4138 
-55 -64.4139 -98.5525 -64.4139 
-178.596 -64.4139 -76.5515 -64.4139 
-55 -64.4139 -64.2063 -64.4139 
-55 -64.4139 -93.7982 -64.4139 
-55 -64.4139 -84.7725 -64.4139 
-55 -64.4139 -94.7516 -64.4139 
-55 -64.4139 -82.8902 -64.4139 
-55 -64.4139 -95.6866 -64.4139 
-55 -64.4139 -81.0694 -64.414 
-55 -64.4139 -96.4025 -64.414 
-55 -64.4139 -79.639 -64.4139 
-55 -64.4139 -96.7946 -64.4139 
-55 -64.4139 -78.7987 -64.4139 
-55 -64.4139 -96.9219 -64.4139 
-55 -64.4139 -78.4565 -64.4139 
-55 -64.4139 -96.9103 -64.4139 
-55 -64.4139 -78.3855 -64.4139 
-187.251 -64.4139 -96.8479 -64.4139 
-55 -64.4139 -44.423 -64.4139 
-55 -64.4139 -59.8452 -64.4139 
-55 -64.4139 -89.1216 -64.4139 
-55 -64.4139 -90.9046 -64.4139 
-55 -64.4139 -88.5469 -64.4139 
-55 -64.4139 -91.0852 -64.4139 
-55 -64.4139 -87.9203 -64.4139 
-55 -64.4139 -91.3882 -64.4139 
-55 -64.4139 -87.2181 -64.4139 
-55 -64.4139 -91.8089 -64.4139 
-55 -64.4139 -86.4201 -64.4139 
-55 -64.4139 -92.3375 -64.4139 
-185.945 -64.4139 -85.5148 -64.4139 
-55 -64.4139 -58.9538 -64.4139 
-55 -64.4139 -87.1013 -64.4139 
-55 -64.4139 -92.2289 -64.4139 
-168.425 -64.4139 -86.127 -64.4139 
-55 -64.4139 -58.8424 -64.4139 
-55 -64.4139 -87.3193 -64.4139 
-55 -64.4139 -92.3441 -64.4139 
-55 -64.4139 -86.2575 -64.4139 
-55 -64.4139 -92.9833 -64.4139 
-55 -64.4139 -85.0549 -64.4139 
-175.565 -64.4139 -93.7231 -64.4139 
-55 -64.4139 -49.742 -64.4139 
-55 -64.4139 -72.026 -64.4139 
-55 -64.4139 -98.0927 -64.4139 
-55 -64.4139 -77.3702 -64.4139 
-55 -64.4139 -98.054 -64.4139 
-55 -64.4139 -77.1571 -64.4139 
-178.98 -64.4139 -97.8374 -64.4139 
-55 -64.4139 -43.3305 -64.4139 
-55 -64.4139 -57.7088 -64.4139 
-55 -64.4139 -86.9017 -64.4139 
-55 -64.4139 -93.7663 -64.4139 
-55 -64.4139 -85.1295 -64.4139 
-178.849 -64.4139 -94.7463 -64.4139 
-55 -64.4139 -49.1408 -64.4139 
-55 -64.4139 -71.647 -64.4139 
-55 -64.4139 -98.7772 -64.4139 
-55 -64.4139 -76.7988 -64.4139 
-55 -64.4139 -98.7728 -64.4139 
-55 -64.4139 -76.3862 -64.4139 
-55 -64.4139 -98.4466 -64.4139 
-55 -64.4139 -76.6717 -64.4139 
-183.581 -64.4139 -98.1223 -64.4139 
-55 -64.4139 -43.0084 -64.4139 
-55 -64.4139 -57.0629 -64.4139 
-175.641 -64.4139 -86.1565 -64.4139 
-55 -64.4139 -60.6184 -64.4139 
-55 -64.4139 -91.11 -64.4139 
-55 -64.4139 -89.4482 -64.4139 
-172.517 -64.4139 -91.1188 -64.4139 
-55 -64.4139 -54.7933 -64.4139 
-55 -64.4139 -82.5566 -64.4139 
-55 -64.4139 -97.2462 -64.4139 
-55 -64.4139 -79.6175 -64.4139 
-173.071 -64.4139 -98.088 -64.4139 
-55 -64.4139 -43.6343 -64.4139 
-55 -64.4139 -59.1562 -64.4139 
-167.979 -64.4139 -89.4257 -64.4139 
-55 -64.4139 -57.6173 -64.4139 
-160.685 -64.4139 -87.5251 -64.4139 
-55 -64.4139 -59.8349 -64.4139 
-55 -64.4139 -90.6114 -64.4139 
-158.95 -64.4139 -90.4851 -64.4139 
-55 -64.4139 -56.2537 -64.4139 
-153.372 -64.4139 -85.4415 -64.4139 
-55 -64.4139 -61.6814 -64.4139 
-55 -64.4139 -92.7065 -64.4139 
-55 -64.4139 -87.6389 -64.4139 
-55 -64.4139 -93.3544 -64.4139 
-55 -64.4139 -86.0033 -64.4139 
-55 -64.4139 -94.254 -64.4139 
-168.365 -64.4139 -84.1085 -64.4139 
-55 -64.4139 -61.2686 -64.4139 
-55 -64.4139 -90.9836 -64.4139 
-55 -64.4139 -88.8223 -64.4139 
-55 -64.4139 -91.1203 -64.4139 
-170.619 -64.4139 -88.1712 -64.4139 
-55 -64.4139 -57.3921 -64.4139 
-55 -64.4139 -85.7922 -64.4139 
-55 -64.4139 -94.1806 -64.4139 
-55 -64.4139 -83.9948 -64.4139 
-55 -64.4139 -95.1488 -64.4139 
-174.405 -64.4139 -82.1077 -64.4139 
-55 -64.4139 -62.0127 -64.4139 
-55 -64.4139 -91.3305 -64.4139 
-168.952 -64.4139 -87.9518 -64.4139 
-55 -64.4139 -57.6642 -64.4139 
-55 -64.4139 -86.2166 -64.4139 
-55 -64.4139 -93.8399 -64.4139 
-55 -64.4139 -84.5321 -64.4139 
-170.966 -64.4139 -94.7763 -64.4139 
-55 -64.4139 -48.7125 -64.4139 
-163.105 -64.4139 -70.4099 -64.4139 
-55 -64.4139 -64.0857 -64.4139 
-55 -64.4139 -94.4104 -64.4139 
-55 -64.4139 -84.485 -64.4139 
-164.292 -64.4139 -95.541 -64.4139 
-55 -64.4139 -48.1364 -64.4139 
-55 -64.4139 -69.7575 -64.4139 
-55 -64.4139 -98.3585 -64.4139 
-165.071 -64.4139 -77.8433 -64.4139 
-55 -64.4139 -64.8192 -64.4139 
-158.33 -64.4139 -95.036 -64.4139 
-55 -64.4139 -49.4858 -64.4139 
-152.87 -64.4139 -73.0741 -64.4139 
-55 -64.4139 -65.7164 -64.4139 
-55 -64.4139 -96.5039 -64.4139 
-55 -64.4139 -81.7166 -64.4139 
-55 -64.4139 -97.8748 -64.4139 
-55 -64.4139 -78.6382 -64.4139 
-55 -64.4139 -98.5352 -64.4139 
-55 -64.4139 -76.936 -64.4139 
-55 -64.4139 -98.4697 -64.4139 
-173.517 -64.4139 -76.7012 -64.4139 
-55 -64.4139 -64.1835 -64.4139 
-55 -64.4139 -93.7717 -64.4139 
-55 -64.4139 -84.8068 -64.4139 
-55 -64.4139 -94.7204 -64.4139 
-173.661 -64.4139 -82.9346 -64.4139 
-55 -64.4139 -61.6552 -64.4139 
-55 -64.4139 -91.0593 -64.4139 
-55 -64.4139 -88.4069 -64.4139 
-55 -64.4139 -91.2843 -64.4139 
-173.746 -64.4139 -87.7094 -64.4139 
-55 -64.4139 -57.6419 -64.4139 
-55 -64.4139 -85.9475 -64.4139 
-55 -64.4139 -93.8648 -64.4139 
-55 -64.4139 -84.3089 -64.4139 
-55 -64.4139 -94.7768 -64.4139 
-55 -64.4139 -82.5661 -64.4139 
-55 -64.4139 -95.6306 -64.4139 
-55 -64.4139 -80.9394 -64.4139 
-55 -64.4139 -96.266 -64.4139 
-55 -64.4139 -79.6961 -64.4139 
-55 -64.4139 -96.6184 -64.4139 
-55 -64.4139 -78.9638 -64.4139 
-55 -64.4139 -96.7483 -64.4139 
-55 -64.4139 -78.6454 -64.4139 
-55 -64.4139 -96.7582 -64.4139 
-55 -64.4139 -78.5578 -64.4139 
-55 -64.4139 -96.7199 -64.4139 
-190.729 -64.4139 -78.5695 -64.4139 
-55 -64.4139 -62.6682 -64.4139 
-55 -64.4139 -91.3127 -64.4139 
-55 -64.4139 -87.3452 -64.4139 
-55 -64.4139 -91.7114 -64.4139 
-55 -64.4139 -86.5723 -64.4139 
-55 -64.4139 -92.2193 -64.4139 
-55 -64.4139 -85.6939 -64.4139 
-55 -64.4139 -92.8188 -64.4139 
-55 -64.4139 -84.7111 -64.4139 
-183.196 -64.4139 -93.4776 -64.4139 
-55 -64.4139 -49.6504 -64.4139 
-159.682 -64.4139 -71.4353 -64.4139 
-55 -64.4139 -63.5761 -64.4139 
-55 -64.4139 -93.1697 -64.4139 
-55 -64.4139 -85.656 -64.4139 
-55 -64.4139 -94.004 -64.4139 
-165.492 -64.4139 -84.0039 -64.4139 
-55 -64.4139 -60.9123 -64.4139 
-55 -64.4139 -90.2008 -64.4139 
-55 -64.4139 -89.46 -64.4139 
-155.42 -64.4139 -90.1136 -64.4139 
-55 -64.4139 -55.1564 -64.4139 
-55 -64.4139 -82.3601 -64.4139 
-55 -64.4139 -96.654 -64.4139 
-55 -64.4139 -80.0239 -64.4139 
-153.764 -64.4139 -97.3758 -64.4139 
-55 -64.4139 -44.4194 -64.4139 
-55 -64.4139 -60.6603 -64.4139 
-55 -64.4139 -90.8248 -64.4139 
-55 -64.4139 -89.5114 -64.4139 
-55 -64.4139 -90.7817 -64.4139 
-165.448 -64.4139 -88.9842 -64.4139 
-55 -64.4139 -56.8603 -64.4139 
-55 -64.4139 -85.3277 -64.4139 
-55 -64.4139 -94.8526 -64.4139 
-55 -64.4139 -83.2089 -64.4139 
-55 -64.4139 -95.9098 -64.4139 
-55 -64.4139 -81.0757 -64.4139 
-55 -64.4139 -96.7337 -64.4139 
-55 -64.4139 -79.3682 -64.4139 
-178.389 -64.4139 -97.1545 -64.4139 
-55 -64.4139 -44.4091 -64.4139 
-55 -64.4139 -60.2765 -64.4139 
-55 -64.4139 -90.0563 -64.4139 
-55 -64.4139 -90.1802 -64.4139 
-166.909 -64.4139 -89.7541 -64.4139 
-55 -64.4139 -56.0128 -64.4139 
-55 -64.4139 -84.0836 -64.4139 
-55 -64.4139 -95.8529 -64.4139 
-166.788 -64.4139 -81.6422 -64.4139 
-55 -64.4139 -62.8714 -64.4139 
-159.721 -64.4139 -92.7472 -64.4139 
-55 -64.4139 -52.498 -64.4139 
-55 -64.4139 -78.5145 -64.4139 
-55 -64.4139 -98.9847 -64.4139 
-55 -64.4139 -76.4574 -64.4139 
-165.515 -64.4139 -98.8616 -64.4139 
-55 -64.4139 -42.2656 -64.4139 
-55 -64.4139 -55.7032 -64.4139 
-55 -64.4139 -84.6571 -64.4139 
-55 -64.4139 -96.3735 -64.4139 
-168.936 -64.4139 -81.6039 -64.4139 
-55 -64.4139 -63.6357 -64.4139 
-55 -64.4139 -94.136 -64.4139 
-55 -64.4139 -85.0333 -64.4139 
-55 -64.4139 -95.2326 -64.4139 
-55 -64.4139 -82.7331 -64.4139 
-55 -64.4139 -96.3239 -64.4139 
-168.149 -64.4139 -80.4877 -64.4139 
-55 -64.4139 -63.0959 -64.4139 
-55 -64.4139 -92.6897 -64.4139 
-55 -64.4139 -86.3278 -64.4139 
-55 -64.4139 -93.4103 -64.4139 
-55 -64.4139 -84.8729 -64.4139 
-173.092 -64.4139 -94.2532 -64.4139 
-55 -64.4139 -49.2879 -64.4139 
-55 -64.4139 -71.4028 -64.4139 
-55 -64.4139 -98.2127 -64.4139 
-55 -64.4139 -77.419 -64.4139 
-55 -64.4139 -98.2856 -64.4139 
-55 -64.4139 -76.9434 -64.4139 
-170.076 -64.4139 -98.0607 -64.4139 
-55 -64.4139 -43.0953 -64.4139 
-55 -64.4139 -57.2624 -64.4139 
-154.094 -64.4139 -86.4187 -64.4139 
-55 -64.4139 -60.3563 -64.4139 
-55 -64.4139 -90.7764 -64.4139 
-142.802 -64.4139 -89.8538 -64.4139 
-55 -64.4139 -56.6341 -64.4139 
-140.292 -64.4139 -85.6746 -64.4139 
-55 -64.4139 -61.1767 -64.4139 
-138.259 -64.4139 -91.8757 -64.4139 
-55 -64.4139 -54.5464 -64.4139 
-55 -64.4139 -82.813 -64.4139 
-142.601 -64.4139 -97.6869 -64.4139 
-55 -64.4139 -45.3578 -64.4139 
-55 -64.4139 -64.2622 -64.4139 
-145.767 -64.4139 -95.6218 -64.4139 
-55 -64.4139 -49.4937 -64.4139 
-55 -64.4139 -73.94 -64.4139 
-55 -64.4139 -100.584 -64.4139 
-55 -64.4139 -74.4355 -64.4139 
-157.275 -64.4139 -99.9287 -64.4139 
-55 -64.4139 -41.129 -64.4139 
-55 -64.4139 -53.4998 -64.4139 
-55 -64.4139 -81.8319 -64.4139 
-160.467 -64.4139 -98.9856 -64.4139 
-55 -64.4139 -43.6094 -64.4139 
-55 -64.4139 -60.5698 -64.4139 
-55 -64.4139 -92.4668 -64.4139 
-55 -64.4139 -88.8986 -64.4139 
-55 -64.4139 -92.8534 -64.4139 
-55 -64.4139 -87.45 -64.4139 
-55 -64.4139 -93.5583 -64.4139 
-174.233 -64.4139 -85.7198 -64.4139 
-55 -64.4139 -60.5113 -64.4139 
-55 -64.4139 -90.557 -64.4139 
-55 -64.4139 -89.7649 -64.4139 
-55 -64.4139 -90.417 -64.4139 
-55 -64.4139 -89.3719 -64.4139 
-176.326 -64.4139 -90.3689 -64.4139 
-55 -64.4139 -54.9856 -64.4139 
-55 -64.4139 -82.2079 -64.4139 
-170.352 -64.4139 -96.855 -64.4139 
-55 -64.4139 -45.7792 -64.4139 
-55 -64.4139 -64.3206 -64.4139 
-165.997 -64.4139 -94.8208 -64.4139 
-55 -64.4139 -50.0222 -64.4139 
-146.18 -64.4139 -74.3366 -64.4139 
-55 -64.4139 -65.9951 -64.4139 
-143.028 -64.4139 -96.8093 -64.4139 
-55 -64.4139 -47.272 -64.4139 
-55 -64.4139 -68.994 -64.4139 
-55 -64.4139 -99.0482 -64.4139 
-55 -64.4139 -77.4845 -64.4139 
-55 -64.4139 -99.7322 -64.4139 
-55 -64.4139 -75.4768 -64.4139 
-163.418 -64.4139 -99.3473 -64.4139 
-55 -64.4139 -41.7224 -64.4139 
-144.156 -64.4139 -54.6108 -64.4139 
-55 -64.4139 -49.2444 -64.4139 
-55 -64.4139 -73.8862 -64.4139 
-55 -64.4139 -100.998 -64.4139 
-55 -64.4139 -73.9603 -64.4139 
-55 -64.4139 -100.228 -64.4139 
-55 -64.4139 -74.8375 -64.4139 
-55 -64.4139 -99.6585 -64.4139 
-55 -64.4139 -75.401 -64.4139 
-55 -64.4139 -99.1524 -64.4139 
-55 -64.4139 -75.9243 -64.4139 
-55 -64.4139 -98.7191 -64.4139 
-55 -64.4139 -76.376 -64.4139 
-55 -64.4139 -98.3481 -64.4139 
-55 -64.4139 -76.7666 -64.4139 
-182.491 -64.4139 -98.0313 -64.4139 
-55 -64.4139 -43.1039 -64.4139 
-55 -64.4139 -57.244 -64.4139 
-55 -64.4139 -86.3559 -64.4139 
-55 -64.4139 -94.3809 -64.4139 
-55 -64.4139 -84.3016 -64.4139 
-55 -64.4139 -95.4733 -64.4139 
-182.293 -64.4139 -82.0668 -64.4139 
-55 -64.4139 -62.4656 -64.4139 
-55 -64.4139 -92.1805 -64.4139 
-55 -64.4139 -87.15 -64.4139 
-55 -64.4139 -92.7517 -64.4139 
-169.143 -64.4139 -85.9073 -64.4139 
-55 -64.4139 -59.4836 -64.4139 
-55 -64.4139 -88.5399 -64.4139 
-55 -64.4139 -91.4329 -64.4139 
-168.254 -64.4139 -87.7743 -64.4139 
-55 -64.4139 -57.8054 -64.4139 
-55 -64.4139 -86.3787 -64.4139 
-55 -64.4139 -93.6602 -64.4139 
-55 -64.4139 -84.7677 -64.4139 
-161.108 -64.4139 -94.5684 -64.4139 
-55 -64.4139 -49.0103 -64.4139 
-55 -64.4139 -71.0115 -64.4139 
-55 -64.4139 -98.2655 -64.4139 
-162.982 -64.4139 -77.485 -64.4139 
-55 -64.4139 -64.4192 -64.4139 
-55 -64.4139 -94.2842 -64.4139 
-55 -64.4139 -84.3004 -64.4139 
-55 -64.4139 -95.341 -64.4139 
-55 -64.4139 -82.163 -64.4139 
-55 -64.4139 -96.3061 -64.4139 
-172.962 -64.4139 -80.2105 -64.4139 
-55 -64.4139 -62.9382 -64.4139 
-151.648 -64.4139 -92.2967 -64.4139 
-55 -64.4139 -52.6643 -64.4139 
-55 -64.4139 -78.4052 -64.4139 
-55 -64.4139 -98.6441 -64.4139 
-55 -64.4139 -76.7752 -64.4139 
-160.748 -64.4139 -98.5311 -64.4139 
-55 -64.4139 -42.6237 -64.4139 
-55 -64.4139 -56.4026 -64.4139 
-55 -64.4139 -85.4983 -64.4139 
-55 -64.4139 -95.4808 -64.4139 
-55 -64.4139 -82.8844 -64.4139 
-55 -64.4139 -96.7231 -64.4139 
-55 -64.4139 -80.2408 -64.4139 
-55 -64.4139 -97.5881 -64.4139 
-170.461 -64.4139 -78.3031 -64.4139 
-55 -64.4139 -63.8649 -64.4139 
-55 -64.4139 -93.4538 -64.4139 
-55 -64.4139 -85.2537 -64.4139 
-55 -64.4139 -94.346 -64.4139 
-162.372 -64.4139 -83.4943 -64.4139 
-55 -64.4139 -61.2739 -64.4139 
-55 -64.4139 -90.6203 -64.4139 
-55 -64.4139 -88.9492 -64.4139 
-55 -64.4139 -90.6893 -64.4139 
-55 -64.4139 -88.4554 -64.4139 
-55 -64.4139 -90.8623 -64.4139 
-172.67 -64.4139 -87.9179 -64.4139 
-55 -64.4139 -57.1379 -64.4139 
-55 -64.4139 -84.9711 -64.4139 
-55 -64.4139 -94.4546 -64.4139 
-55 -64.4139 -83.2248 -64.4139 
-163.635 -64.4139 -95.3604 -64.4139 
-55 -64.4139 -47.4974 -64.4139 
-157.167 -64.4139 -67.5313 -64.4139 
-55 -64.4139 -62.4898 -64.4139 
-55 -64.4139 -92.8004 -64.4139 
-55 -64.4139 -86.8181 -64.4139 
-55 -64.4139 -93.5363 -64.4139 
-55 -64.4139 -85.1965 -64.4139 
-167.256 -64.4139 -94.449 -64.4139 
-55 -64.4139 -49.3867 -64.4139 
-55 -64.4139 -71.9623 -64.4139 
-55 -64.4139 -98.6799 -64.4139 
-55 -64.4139 -76.8155 -64.4139 
-55 -64.4139 -98.6216 -64.4139 
-55 -64.4139 -76.5384 -64.4139 
-55 -64.4139 -98.3117 -64.4139 
-55 -64.4139 -76.8148 -64.4139 
-55 -64.4139 -98.0075 -64.4139 
-55 -64.4139 -77.1311 -64.4139 
-182.398 -64.4139 -97.7426 -64.4139 
-55 -64.4139 -43.4148 -64.4139 
-55 -64.4139 -57.8444 -64.4139 
-55 -64.4139 -87.0167 -64.4139 
-166.169 -64.4139 -93.5881 -64.4139 
-55 -64.4139 -51.3318 -64.4139 
-159.22 -64.4139 -76.39 -64.4139 
-55 -64.4139 -65.4572 -64.4139 
-55 -64.4139 -95.9285 -64.4139 
-55 -64.4139 -82.3574 -64.4139 
-55 -64.4139 -97.2263 -64.4139 
-55 -64.4139 -79.5331 -64.4139 
-55 -64.4139 -98.0115 -64.4139 
-55 -64.4139 -77.6806 -64.4139 
-55 -64.4139 -98.1378 -64.4139 
-55 -64.4139 -77.1263 -64.4139 
-55 -64.4139 -97.9523 -64.4139 
-55 -64.4139 -77.2193 -64.4139 
-55 -64.4139 -97.7167 -64.4139 
-55 -64.4139 -77.4499 -64.4139 
-184.381 -64.4139 -97.4996 -64.4139 
-55 -64.4139 -43.6804 -64.4139 
-55 -64.4139 -58.3622 -64.4139 
-55 -64.4139 -87.5745 -64.4139 
-55 -64.4139 -92.8986 -64.4139 
-55 -64.4139 -86.1972 -64.4139 
-181.719 -64.4139 -93.6729 -64.4139 
-55 -64.4139 -50.6174 -64.4139 
-55 -64.4139 -74.4854 -64.4139 
-55 -64.4139 -99.0633 -64.4139 
-176.505 -64.4139 -76.0427 -64.4139 
-55 -64.4139 -64.664 -64.4139 
-167.592 -64.4139 -94.5622 -64.4139 
-55 -64.4139 -49.9284 -64.4139 
-55 -64.4139 -73.7042 -64.4139 
-152.339 -64.4139 -99.5475 -64.4139 
-55 -64.4139 -41.6075 -64.4139 
-55 -64.4139 -54.5486 -64.4139 
-55 -64.4139 -83.3651 -64.4139 
-147.056 -64.4139 -97.8233 -64.4139 
-55 -64.4139 -45.54 -64.4139 
-131.312 -64.4139 -65.0771 -64.4139 
-55 -64.4139 -62.6365 -64.4139 
-55 -64.4139 -94.6763 -64.4139 
-55 -64.4139 -85.5593 -64.4139 
-55 -64.4139 -96.0141 -64.4139 
-55 -64.4139 -82.524 -64.4139 
-55 -64.4139 -97.4041 -64.4139 
-157.814 -64.4139 -79.4608 -64.4139 
-55 -64.4139 -64.2538 -64.4139 
-55 -64.4139 -94.4388 -64.4139 
-55 -64.4139 -84.3312 -64.4139 
-55 -64.4139 -95.5574 -64.4139 
-155.134 -64.4139 -82.0236 -64.4139 
-55 -64.4139 -62.5732 -64.4139 
-55 -64.4139 -92.3639 -64.4139 
-55 -64.4139 -86.9623 -64.4139 
-55 -64.4139 -92.9873 -64.4139 
-162.806 -64.4139 -85.6242 -64.4139 
-55 -64.4139 -59.7699 -64.4139 
-55 -64.4139 -88.9373 -64.4139 
-55 -64.4139 -91.0298 -64.4139 
-55 -64.4139 -88.3182 -64.4139 
-55 -64.4139 -91.266 -64.4139 
-170.253 -64.4139 -87.6336 -64.4139 
-55 -64.4139 -57.6294 -64.4139 
-162.528 -64.4139 -85.8518 -64.4139 
-55 -64.4139 -59.8781 -64.4139 
-55 -64.4139 -89.3364 -64.4139 
-160.293 -64.4139 -90.8166 -64.4139 
-55 -64.4139 -54.7943 -64.4139 
-55 -64.4139 -82.2194 -64.4139 
-55 -64.4139 -97.1405 -64.4139 
-55 -64.4139 -79.5391 -64.4139 
-156.553 -64.4139 -97.8799 -64.4139 
-55 -64.4139 -43.8058 -64.4139 
-55 -64.4139 -59.4004 -64.4139 
-55 -64.4139 -89.5622 -64.4139 
-159.993 -64.4139 -91.2991 -64.4139 
-55 -64.4139 -54.838 -64.4139 
-55 -64.4139 -82.875 -64.4139 
-146.971 -64.4139 -97.2702 -64.4139 
-55 -64.4139 -45.7656 -64.4139 
-55 -64.4139 -64.9256 -64.4139 
-55 -64.4139 -95.8966 -64.4139 
-55 -64.4139 -82.7708 -64.4139 
-157.986 -64.4139 -97.3009 -64.4139 
-55 -64.4139 -45.6824 -64.4139 
-55 -64.4139 -64.7044 -64.4139 
-55 -64.4139 -95.6947 -64.4139 
-150.647 -64.4139 -83.0928 -64.4139 
-55 -64.4139 -63.0894 -64.4139 
-146.647 -64.4139 -93.8861 -64.4139 
-55 -64.4139 -51.6601 -64.4139 
-55 -64.4139 -77.6974 -64.4139 
-55 -64.4139 -99.8561 -64.4139 
-153.494 -64.4139 -75.3769 -64.4139 
-55 -64.4139 -65.4791 -64.4139 
-55 -64.4139 -95.9258 -64.4139 
-153.707 -64.4139 -82.344 -64.4139 
-55 -64.4139 -63.2182 -64.4139 
-149.126 -64.4139 -93.7268 -64.4139 
-55 -64.4139 -51.6433 -64.4139 
-145.414 -64.4139 -77.4392 -64.4139 
-55 -64.4139 -65.7056 -64.4139 
-55 -64.4139 -96.4576 -64.4139 
-147.817 -64.4139 -81.7619 -64.4139 
-55 -64.4139 -63.821 -64.4139 
-55 -64.4139 -94.5419 -64.4139 
-55 -64.4139 -84.6157 -64.4139 
-55 -64.4139 -95.74 -64.4139 
-55 -64.4139 -82.0733 -64.4139 
-55 -64.4139 -96.8564 -64.4139 
-55 -64.4139 -79.7119 -64.4139 
-168.788 -64.4139 -97.5286 -64.4139 
-55 -64.4139 -44.1809 -64.4139 
-55 -64.4139 -60.1031 -64.4139 
-55 -64.4139 -90.2049 -64.4139 
-55 -64.4139 -90.3233 -64.4139 
-55 -64.4139 -89.8665 -64.4139 
-55 -64.4139 -90.1342 -64.4139 
-55 -64.4139 -89.5688 -64.4139 
-55 -64.4139 -90.0141 -64.4139 
-55 -64.4139 -89.2975 -64.4139 
-55 -64.4139 -89.9559 -64.4139 
-55 -64.4139 -89.0398 -64.4139 
-55 -64.4139 -89.9547 -64.4139 
-185.467 -64.4139 -88.7837 -64.4139 
-55 -64.4139 -56.0082 -64.4139 
-174.85 -64.4139 -83.0996 -64.4139 
-55 -64.4139 -61.6503 -64.4139 
-55 -64.4139 -91.1407 -64.4139 
-169.276 -64.4139 -88.3802 -64.4139 
-55 -64.4139 -57.3815 -64.4139 
-55 -64.4139 -85.9622 -64.4139 
-153.529 -64.4139 -94.1995 -64.4139 
-55 -64.4139 -50.112 -64.4139 
-55 -64.4139 -73.7393 -64.4139 
-55 -64.4139 -99.2479 -64.4139 
-55 -64.4139 -75.9184 -64.4139 
-161.859 -64.4139 -98.8782 -64.4139 
-55 -64.4139 -42.2162 -64.4139 
-55 -64.4139 -55.5575 -64.4139 
-55 -64.4139 -84.4178 -64.4139 
-55 -64.4139 -96.5476 -64.4139 
-55 -64.4139 -81.3034 -64.4139 
-55 -64.4139 -97.7849 -64.4139 
-164.868 -64.4139 -78.5381 -64.4139 
-55 -64.4139 -64.3286 -64.4139 
-158.166 -64.4139 -94.3275 -64.4139 
-55 -64.4139 -50.3443 -64.4139 
-55 -64.4139 -74.5832 -64.4139 
-157.113 -64.4139 -99.6439 -64.4139 
-55 -64.4139 -41.4285 -64.4139 
-55 -64.4139 -54.0762 -64.4139 
-55 -64.4139 -82.5941 -64.4139 
-55 -64.4139 -98.337 -64.4139 
-55 -64.4139 -78.6299 -64.4139 
-167.228 -64.4139 -99.2876 -64.4139 
-55 -64.4139 -42.1721 -64.4139 
-55 -64.4139 -56.1017 -64.4139 
-163.719 -64.4139 -85.8474 -64.4139 
-55 -64.4139 -61.911 -64.4139 
-55 -64.4139 -93.4565 -64.4139 
-55 -64.4139 -87.005 -64.4139 
-55 -64.4139 -94.3665 -64.4139 
-55 -64.4139 -84.8406 -64.4139 
-170.738 -64.4139 -95.526 -64.4139 
-55 -64.4139 -48.386 -64.4139 
-55 -64.4139 -70.4943 -64.4139 
-55 -64.4139 -98.8221 -64.4139 
-55 -64.4139 -77.1086 -64.4139 
