2,4,1
Connections s,l,d,l,w,t
0,0,2,1,0.520424,50
0,0,3,1,0.729182,50
0,0,4,1,0.680916,-50
0,0,5,1,0.942291,50
1,0,2,1,0.716949,-50
1,0,3,1,0.688293,50
1,0,4,1,0.768896,50
1,0,5,1,0.987529,-50
2,1,6,2,0.584581,50
3,1,6,2,0.0725794,50
4,1,6,2,0.804665,50
5,1,6,2,0.901948,50
